^C:\VST-SYNTHESIZER\ELIXER\JUCELIBRARYCODE\INCLUDE_JUCE_AUDIO_PLUGIN_CLIENT_STANDALONE.CPP
C:\PROGRAM FILES (X86)\MICROSOFT VISUAL STUDIO\2019\PREVIEW\VC\TOOLS\MSVC\14.24.28307\BIN\HOSTX86\X64\1031\CLUI.DLL
C:\WINDOWS\GLOBALIZATION\SORTING\SORTDEFAULT.NLS
C:\WINDOWS\SYSTEM32\TZRES.DLL
C:\VST-SYNTHESIZER\ELIXER\JUCELIBRARYCODE\APPCONFIG.H
C:\JUCE\MODULES\JUCE_AUDIO_PLUGIN_CLIENT\JUCE_AUDIO_PLUGIN_CLIENT_STANDALONE.CPP
C:\JUCE\MODULES\JUCE_AUDIO_PLUGIN_CLIENT\STANDALONE\JUCE_STANDALONEFILTERAPP.CPP
C:\JUCE\MODULES\JUCE_CORE\SYSTEM\JUCE_TARGETPLATFORM.H
C:\JUCE\MODULES\JUCE_AUDIO_PLUGIN_CLIENT\UTILITY\JUCE_CHECKSETTINGMACROS.H
C:\JUCE\MODULES\JUCE_AUDIO_PLUGIN_CLIENT\UTILITY\JUCE_INCLUDESYSTEMHEADERS.H
C:\PROGRAM FILES (X86)\WINDOWS KITS\10\INCLUDE\10.0.18362.0\UM\WINDOWS.H
C:\PROGRAM FILES (X86)\WINDOWS KITS\10\INCLUDE\10.0.18362.0\SHARED\WINAPIFAMILY.H
C:\PROGRAM FILES (X86)\WINDOWS KITS\10\INCLUDE\10.0.18362.0\SHARED\WINPACKAGEFAMILY.H
C:\PROGRAM FILES (X86)\WINDOWS KITS\10\INCLUDE\10.0.18362.0\SHARED\SDKDDKVER.H
C:\PROGRAM FILES (X86)\MICROSOFT VISUAL STUDIO\2019\PREVIEW\VC\TOOLS\MSVC\14.24.28307\INCLUDE\EXCPT.H
C:\PROGRAM FILES (X86)\MICROSOFT VISUAL STUDIO\2019\PREVIEW\VC\TOOLS\MSVC\14.24.28307\INCLUDE\VCRUNTIME.H
C:\PROGRAM FILES (X86)\MICROSOFT VISUAL STUDIO\2019\PREVIEW\VC\TOOLS\MSVC\14.24.28307\INCLUDE\SAL.H
C:\PROGRAM FILES (X86)\MICROSOFT VISUAL STUDIO\2019\PREVIEW\VC\TOOLS\MSVC\14.24.28307\INCLUDE\CONCURRENCYSAL.H
C:\PROGRAM FILES (X86)\MICROSOFT VISUAL STUDIO\2019\PREVIEW\VC\TOOLS\MSVC\14.24.28307\INCLUDE\VADEFS.H
C:\PROGRAM FILES (X86)\MICROSOFT VISUAL STUDIO\2019\PREVIEW\VC\TOOLS\MSVC\14.24.28307\INCLUDE\STDARG.H
C:\PROGRAM FILES (X86)\WINDOWS KITS\10\INCLUDE\10.0.18362.0\SHARED\WINDEF.H
C:\PROGRAM FILES (X86)\WINDOWS KITS\10\INCLUDE\10.0.18362.0\SHARED\MINWINDEF.H
C:\PROGRAM FILES (X86)\WINDOWS KITS\10\INCLUDE\10.0.18362.0\SHARED\SPECSTRINGS.H
C:\PROGRAM FILES (X86)\WINDOWS KITS\10\INCLUDE\10.0.18362.0\SHARED\SPECSTRINGS_STRICT.H
C:\PROGRAM FILES (X86)\WINDOWS KITS\10\INCLUDE\10.0.18362.0\SHARED\SPECSTRINGS_UNDEF.H
C:\PROGRAM FILES (X86)\WINDOWS KITS\10\INCLUDE\10.0.18362.0\SHARED\DRIVERSPECS.H
C:\PROGRAM FILES (X86)\WINDOWS KITS\10\INCLUDE\10.0.18362.0\SHARED\SDV_DRIVERSPECS.H
C:\PROGRAM FILES (X86)\WINDOWS KITS\10\INCLUDE\10.0.18362.0\UM\WINNT.H
C:\PROGRAM FILES (X86)\WINDOWS KITS\10\INCLUDE\10.0.18362.0\UCRT\CTYPE.H
C:\PROGRAM FILES (X86)\WINDOWS KITS\10\INCLUDE\10.0.18362.0\UCRT\CORECRT.H
C:\PROGRAM FILES (X86)\WINDOWS KITS\10\INCLUDE\10.0.18362.0\UCRT\CORECRT_WCTYPE.H
C:\PROGRAM FILES (X86)\WINDOWS KITS\10\INCLUDE\10.0.18362.0\SHARED\KERNELSPECS.H
C:\PROGRAM FILES (X86)\WINDOWS KITS\10\INCLUDE\10.0.18362.0\SHARED\BASETSD.H
C:\PROGRAM FILES (X86)\WINDOWS KITS\10\INCLUDE\10.0.18362.0\SHARED\GUIDDEF.H
C:\PROGRAM FILES (X86)\WINDOWS KITS\10\INCLUDE\10.0.18362.0\UCRT\STRING.H
C:\PROGRAM FILES (X86)\WINDOWS KITS\10\INCLUDE\10.0.18362.0\UCRT\CORECRT_MEMORY.H
C:\PROGRAM FILES (X86)\WINDOWS KITS\10\INCLUDE\10.0.18362.0\UCRT\CORECRT_MEMCPY_S.H
C:\PROGRAM FILES (X86)\WINDOWS KITS\10\INCLUDE\10.0.18362.0\UCRT\ERRNO.H
C:\PROGRAM FILES (X86)\MICROSOFT VISUAL STUDIO\2019\PREVIEW\VC\TOOLS\MSVC\14.24.28307\INCLUDE\VCRUNTIME_STRING.H
C:\PROGRAM FILES (X86)\WINDOWS KITS\10\INCLUDE\10.0.18362.0\UCRT\CORECRT_WSTRING.H
C:\PROGRAM FILES (X86)\WINDOWS KITS\10\INCLUDE\10.0.18362.0\SHARED\PSHPACK4.H
C:\PROGRAM FILES (X86)\WINDOWS KITS\10\INCLUDE\10.0.18362.0\SHARED\POPPACK.H
C:\PROGRAM FILES (X86)\WINDOWS KITS\10\INCLUDE\10.0.18362.0\SHARED\PSHPACK2.H
C:\PROGRAM FILES (X86)\WINDOWS KITS\10\INCLUDE\10.0.18362.0\SHARED\PSHPACK8.H
C:\PROGRAM FILES (X86)\WINDOWS KITS\10\INCLUDE\10.0.18362.0\SHARED\PSHPACK1.H
C:\PROGRAM FILES (X86)\WINDOWS KITS\10\INCLUDE\10.0.18362.0\SHARED\APISET.H
C:\PROGRAM FILES (X86)\WINDOWS KITS\10\INCLUDE\10.0.18362.0\SHARED\KTMTYPES.H
C:\PROGRAM FILES (X86)\WINDOWS KITS\10\INCLUDE\10.0.18362.0\UM\WINBASE.H
C:\PROGRAM FILES (X86)\WINDOWS KITS\10\INCLUDE\10.0.18362.0\SHARED\APISETCCONV.H
C:\PROGRAM FILES (X86)\WINDOWS KITS\10\INCLUDE\10.0.18362.0\UM\MINWINBASE.H
C:\PROGRAM FILES (X86)\WINDOWS KITS\10\INCLUDE\10.0.18362.0\UM\APIQUERY2.H
C:\PROGRAM FILES (X86)\WINDOWS KITS\10\INCLUDE\10.0.18362.0\UM\PROCESSENV.H
C:\PROGRAM FILES (X86)\WINDOWS KITS\10\INCLUDE\10.0.18362.0\UM\FILEAPIFROMAPP.H
C:\PROGRAM FILES (X86)\WINDOWS KITS\10\INCLUDE\10.0.18362.0\UM\FILEAPI.H
C:\PROGRAM FILES (X86)\WINDOWS KITS\10\INCLUDE\10.0.18362.0\UM\DEBUGAPI.H
C:\PROGRAM FILES (X86)\WINDOWS KITS\10\INCLUDE\10.0.18362.0\UM\UTILAPISET.H
C:\PROGRAM FILES (X86)\WINDOWS KITS\10\INCLUDE\10.0.18362.0\UM\HANDLEAPI.H
C:\PROGRAM FILES (X86)\WINDOWS KITS\10\INCLUDE\10.0.18362.0\UM\ERRHANDLINGAPI.H
C:\PROGRAM FILES (X86)\WINDOWS KITS\10\INCLUDE\10.0.18362.0\UM\FIBERSAPI.H
C:\PROGRAM FILES (X86)\WINDOWS KITS\10\INCLUDE\10.0.18362.0\UM\NAMEDPIPEAPI.H
C:\PROGRAM FILES (X86)\WINDOWS KITS\10\INCLUDE\10.0.18362.0\UM\PROFILEAPI.H
C:\PROGRAM FILES (X86)\WINDOWS KITS\10\INCLUDE\10.0.18362.0\UM\HEAPAPI.H
C:\PROGRAM FILES (X86)\WINDOWS KITS\10\INCLUDE\10.0.18362.0\UM\IOAPISET.H
C:\PROGRAM FILES (X86)\WINDOWS KITS\10\INCLUDE\10.0.18362.0\UM\SYNCHAPI.H
C:\PROGRAM FILES (X86)\WINDOWS KITS\10\INCLUDE\10.0.18362.0\UM\INTERLOCKEDAPI.H
C:\PROGRAM FILES (X86)\WINDOWS KITS\10\INCLUDE\10.0.18362.0\UM\PROCESSTHREADSAPI.H
C:\PROGRAM FILES (X86)\WINDOWS KITS\10\INCLUDE\10.0.18362.0\UM\SYSINFOAPI.H
C:\PROGRAM FILES (X86)\WINDOWS KITS\10\INCLUDE\10.0.18362.0\UM\MEMORYAPI.H
C:\PROGRAM FILES (X86)\WINDOWS KITS\10\INCLUDE\10.0.18362.0\UM\ENCLAVEAPI.H
C:\PROGRAM FILES (X86)\WINDOWS KITS\10\INCLUDE\10.0.18362.0\UM\THREADPOOLLEGACYAPISET.H
C:\PROGRAM FILES (X86)\WINDOWS KITS\10\INCLUDE\10.0.18362.0\UM\THREADPOOLAPISET.H
C:\PROGRAM FILES (X86)\WINDOWS KITS\10\INCLUDE\10.0.18362.0\UM\JOBAPI.H
C:\PROGRAM FILES (X86)\WINDOWS KITS\10\INCLUDE\10.0.18362.0\UM\JOBAPI2.H
C:\PROGRAM FILES (X86)\WINDOWS KITS\10\INCLUDE\10.0.18362.0\UM\WOW64APISET.H
C:\PROGRAM FILES (X86)\WINDOWS KITS\10\INCLUDE\10.0.18362.0\UM\LIBLOADERAPI.H
C:\PROGRAM FILES (X86)\WINDOWS KITS\10\INCLUDE\10.0.18362.0\UM\SECURITYBASEAPI.H
C:\PROGRAM FILES (X86)\WINDOWS KITS\10\INCLUDE\10.0.18362.0\UM\NAMESPACEAPI.H
C:\PROGRAM FILES (X86)\WINDOWS KITS\10\INCLUDE\10.0.18362.0\UM\SYSTEMTOPOLOGYAPI.H
C:\PROGRAM FILES (X86)\WINDOWS KITS\10\INCLUDE\10.0.18362.0\UM\PROCESSTOPOLOGYAPI.H
C:\PROGRAM FILES (X86)\WINDOWS KITS\10\INCLUDE\10.0.18362.0\UM\SECURITYAPPCONTAINER.H
C:\PROGRAM FILES (X86)\WINDOWS KITS\10\INCLUDE\10.0.18362.0\UM\REALTIMEAPISET.H
C:\PROGRAM FILES (X86)\WINDOWS KITS\10\INCLUDE\10.0.18362.0\SHARED\WINERROR.H
C:\PROGRAM FILES (X86)\WINDOWS KITS\10\INCLUDE\10.0.18362.0\UM\TIMEZONEAPI.H
C:\PROGRAM FILES (X86)\WINDOWS KITS\10\INCLUDE\10.0.18362.0\UM\WINGDI.H
C:\PROGRAM FILES (X86)\WINDOWS KITS\10\INCLUDE\10.0.18362.0\UM\WINUSER.H
C:\PROGRAM FILES (X86)\WINDOWS KITS\10\INCLUDE\10.0.18362.0\SHARED\TVOUT.H
C:\PROGRAM FILES (X86)\WINDOWS KITS\10\INCLUDE\10.0.18362.0\UM\WINNLS.H
C:\PROGRAM FILES (X86)\WINDOWS KITS\10\INCLUDE\10.0.18362.0\UM\DATETIMEAPI.H
C:\PROGRAM FILES (X86)\WINDOWS KITS\10\INCLUDE\10.0.18362.0\UM\STRINGAPISET.H
C:\PROGRAM FILES (X86)\WINDOWS KITS\10\INCLUDE\10.0.18362.0\UM\WINCON.H
C:\PROGRAM FILES (X86)\WINDOWS KITS\10\INCLUDE\10.0.18362.0\UM\WINCONTYPES.H
C:\PROGRAM FILES (X86)\WINDOWS KITS\10\INCLUDE\10.0.18362.0\UM\CONSOLEAPI.H
C:\PROGRAM FILES (X86)\WINDOWS KITS\10\INCLUDE\10.0.18362.0\UM\CONSOLEAPI2.H
C:\PROGRAM FILES (X86)\WINDOWS KITS\10\INCLUDE\10.0.18362.0\UM\CONSOLEAPI3.H
C:\PROGRAM FILES (X86)\WINDOWS KITS\10\INCLUDE\10.0.18362.0\UM\WINVER.H
C:\PROGRAM FILES (X86)\WINDOWS KITS\10\INCLUDE\10.0.18362.0\UM\VERRSRC.H
C:\PROGRAM FILES (X86)\WINDOWS KITS\10\INCLUDE\10.0.18362.0\UM\WINREG.H
C:\PROGRAM FILES (X86)\WINDOWS KITS\10\INCLUDE\10.0.18362.0\UM\REASON.H
C:\PROGRAM FILES (X86)\WINDOWS KITS\10\INCLUDE\10.0.18362.0\UM\WINNETWK.H
C:\PROGRAM FILES (X86)\WINDOWS KITS\10\INCLUDE\10.0.18362.0\SHARED\WNNC.H
C:\PROGRAM FILES (X86)\WINDOWS KITS\10\INCLUDE\10.0.18362.0\SHARED\CDERR.H
C:\PROGRAM FILES (X86)\WINDOWS KITS\10\INCLUDE\10.0.18362.0\UM\DDE.H
C:\PROGRAM FILES (X86)\WINDOWS KITS\10\INCLUDE\10.0.18362.0\UM\DDEML.H
C:\PROGRAM FILES (X86)\WINDOWS KITS\10\INCLUDE\10.0.18362.0\UM\DLGS.H
C:\PROGRAM FILES (X86)\WINDOWS KITS\10\INCLUDE\10.0.18362.0\UM\LZEXPAND.H
C:\PROGRAM FILES (X86)\WINDOWS KITS\10\INCLUDE\10.0.18362.0\UM\MMSYSTEM.H
C:\PROGRAM FILES (X86)\WINDOWS KITS\10\INCLUDE\10.0.18362.0\UM\MMSYSCOM.H
C:\PROGRAM FILES (X86)\WINDOWS KITS\10\INCLUDE\10.0.18362.0\UM\MCIAPI.H
C:\PROGRAM FILES (X86)\WINDOWS KITS\10\INCLUDE\10.0.18362.0\UM\MMISCAPI.H
C:\PROGRAM FILES (X86)\WINDOWS KITS\10\INCLUDE\10.0.18362.0\UM\MMISCAPI2.H
C:\PROGRAM FILES (X86)\WINDOWS KITS\10\INCLUDE\10.0.18362.0\UM\PLAYSOUNDAPI.H
C:\PROGRAM FILES (X86)\WINDOWS KITS\10\INCLUDE\10.0.18362.0\UM\MMEAPI.H
C:\PROGRAM FILES (X86)\WINDOWS KITS\10\INCLUDE\10.0.18362.0\UM\TIMEAPI.H
C:\PROGRAM FILES (X86)\WINDOWS KITS\10\INCLUDE\10.0.18362.0\UM\JOYSTICKAPI.H
C:\PROGRAM FILES (X86)\WINDOWS KITS\10\INCLUDE\10.0.18362.0\UM\NB30.H
C:\PROGRAM FILES (X86)\WINDOWS KITS\10\INCLUDE\10.0.18362.0\SHARED\RPC.H
C:\PROGRAM FILES (X86)\WINDOWS KITS\10\INCLUDE\10.0.18362.0\SHARED\RPCDCE.H
C:\PROGRAM FILES (X86)\WINDOWS KITS\10\INCLUDE\10.0.18362.0\SHARED\RPCDCEP.H
C:\PROGRAM FILES (X86)\WINDOWS KITS\10\INCLUDE\10.0.18362.0\UM\RPCNSI.H
C:\PROGRAM FILES (X86)\WINDOWS KITS\10\INCLUDE\10.0.18362.0\SHARED\RPCNTERR.H
C:\PROGRAM FILES (X86)\WINDOWS KITS\10\INCLUDE\10.0.18362.0\SHARED\RPCASYNC.H
C:\PROGRAM FILES (X86)\WINDOWS KITS\10\INCLUDE\10.0.18362.0\UM\SHELLAPI.H
C:\PROGRAM FILES (X86)\WINDOWS KITS\10\INCLUDE\10.0.18362.0\UM\WINPERF.H
C:\PROGRAM FILES (X86)\WINDOWS KITS\10\INCLUDE\10.0.18362.0\UM\WINSOCK.H
C:\PROGRAM FILES (X86)\WINDOWS KITS\10\INCLUDE\10.0.18362.0\SHARED\INADDR.H
C:\PROGRAM FILES (X86)\WINDOWS KITS\10\INCLUDE\10.0.18362.0\UM\WINCRYPT.H
C:\PROGRAM FILES (X86)\WINDOWS KITS\10\INCLUDE\10.0.18362.0\SHARED\BCRYPT.H
C:\PROGRAM FILES (X86)\WINDOWS KITS\10\INCLUDE\10.0.18362.0\UM\NCRYPT.H
C:\PROGRAM FILES (X86)\WINDOWS KITS\10\INCLUDE\10.0.18362.0\UM\DPAPI.H
C:\PROGRAM FILES (X86)\WINDOWS KITS\10\INCLUDE\10.0.18362.0\UM\WINEFS.H
C:\PROGRAM FILES (X86)\WINDOWS KITS\10\INCLUDE\10.0.18362.0\UM\WINSCARD.H
C:\PROGRAM FILES (X86)\WINDOWS KITS\10\INCLUDE\10.0.18362.0\SHARED\WTYPES.H
C:\PROGRAM FILES (X86)\WINDOWS KITS\10\INCLUDE\10.0.18362.0\SHARED\RPCNDR.H
C:\PROGRAM FILES (X86)\WINDOWS KITS\10\INCLUDE\10.0.18362.0\UM\RPCNSIP.H
C:\PROGRAM FILES (X86)\WINDOWS KITS\10\INCLUDE\10.0.18362.0\SHARED\RPCSAL.H
C:\PROGRAM FILES (X86)\WINDOWS KITS\10\INCLUDE\10.0.18362.0\SHARED\WTYPESBASE.H
C:\PROGRAM FILES (X86)\WINDOWS KITS\10\INCLUDE\10.0.18362.0\UM\WINIOCTL.H
C:\PROGRAM FILES (X86)\WINDOWS KITS\10\INCLUDE\10.0.18362.0\SHARED\WINSMCRD.H
C:\PROGRAM FILES (X86)\WINDOWS KITS\10\INCLUDE\10.0.18362.0\UM\WINSPOOL.H
C:\PROGRAM FILES (X86)\WINDOWS KITS\10\INCLUDE\10.0.18362.0\UM\PRSHT.H
C:\PROGRAM FILES (X86)\WINDOWS KITS\10\INCLUDE\10.0.18362.0\UM\OLE2.H
C:\PROGRAM FILES (X86)\WINDOWS KITS\10\INCLUDE\10.0.18362.0\UM\OBJBASE.H
C:\PROGRAM FILES (X86)\WINDOWS KITS\10\INCLUDE\10.0.18362.0\UM\COMBASEAPI.H
C:\PROGRAM FILES (X86)\WINDOWS KITS\10\INCLUDE\10.0.18362.0\UCRT\STDLIB.H
C:\PROGRAM FILES (X86)\WINDOWS KITS\10\INCLUDE\10.0.18362.0\UCRT\CORECRT_MALLOC.H
C:\PROGRAM FILES (X86)\WINDOWS KITS\10\INCLUDE\10.0.18362.0\UCRT\CORECRT_SEARCH.H
C:\PROGRAM FILES (X86)\WINDOWS KITS\10\INCLUDE\10.0.18362.0\UCRT\STDDEF.H
C:\PROGRAM FILES (X86)\WINDOWS KITS\10\INCLUDE\10.0.18362.0\UCRT\CORECRT_WSTDLIB.H
C:\PROGRAM FILES (X86)\MICROSOFT VISUAL STUDIO\2019\PREVIEW\VC\TOOLS\MSVC\14.24.28307\INCLUDE\LIMITS.H
C:\PROGRAM FILES (X86)\WINDOWS KITS\10\INCLUDE\10.0.18362.0\UM\UNKNWNBASE.H
C:\PROGRAM FILES (X86)\WINDOWS KITS\10\INCLUDE\10.0.18362.0\UM\OBJIDLBASE.H
C:\PROGRAM FILES (X86)\WINDOWS KITS\10\INCLUDE\10.0.18362.0\UM\CGUID.H
C:\PROGRAM FILES (X86)\WINDOWS KITS\10\INCLUDE\10.0.18362.0\UM\COML2API.H
C:\PROGRAM FILES (X86)\WINDOWS KITS\10\INCLUDE\10.0.18362.0\UM\OBJIDL.H
C:\PROGRAM FILES (X86)\WINDOWS KITS\10\INCLUDE\10.0.18362.0\UM\UNKNWN.H
C:\PROGRAM FILES (X86)\WINDOWS KITS\10\INCLUDE\10.0.18362.0\UM\PROPIDLBASE.H
C:\PROGRAM FILES (X86)\WINDOWS KITS\10\INCLUDE\10.0.18362.0\UM\OAIDL.H
C:\PROGRAM FILES (X86)\WINDOWS KITS\10\INCLUDE\10.0.18362.0\UM\URLMON.H
C:\PROGRAM FILES (X86)\WINDOWS KITS\10\INCLUDE\10.0.18362.0\UM\OLEIDL.H
C:\PROGRAM FILES (X86)\WINDOWS KITS\10\INCLUDE\10.0.18362.0\UM\SERVPROV.H
C:\PROGRAM FILES (X86)\WINDOWS KITS\10\INCLUDE\10.0.18362.0\UM\MSXML.H
C:\PROGRAM FILES (X86)\WINDOWS KITS\10\INCLUDE\10.0.18362.0\UM\PROPIDL.H
C:\PROGRAM FILES (X86)\WINDOWS KITS\10\INCLUDE\10.0.18362.0\UM\OLEAUTO.H
C:\PROGRAM FILES (X86)\WINDOWS KITS\10\INCLUDE\10.0.18362.0\UM\COMMDLG.H
C:\PROGRAM FILES (X86)\WINDOWS KITS\10\INCLUDE\10.0.18362.0\SHARED\STRALIGN.H
C:\PROGRAM FILES (X86)\WINDOWS KITS\10\INCLUDE\10.0.18362.0\UM\WINSVC.H
C:\PROGRAM FILES (X86)\WINDOWS KITS\10\INCLUDE\10.0.18362.0\UM\MCX.H
C:\PROGRAM FILES (X86)\WINDOWS KITS\10\INCLUDE\10.0.18362.0\UM\IMM.H
C:\PROGRAM FILES (X86)\WINDOWS KITS\10\INCLUDE\10.0.18362.0\UM\IME_CMODES.H
C:\PROGRAM FILES (X86)\WINDOWS KITS\10\INCLUDE\10.0.18362.0\UCRT\FLOAT.H
C:\JUCE\MODULES\JUCE_AUDIO_PLUGIN_CLIENT\UTILITY\JUCE_INCLUDEMODULEHEADERS.H
C:\JUCE\MODULES\JUCE_AUDIO_PLUGIN_CLIENT\JUCE_AUDIO_PLUGIN_CLIENT.H
C:\JUCE\MODULES\JUCE_GUI_BASICS\JUCE_GUI_BASICS.H
C:\JUCE\MODULES\JUCE_GRAPHICS\JUCE_GRAPHICS.H
C:\JUCE\MODULES\JUCE_CORE\JUCE_CORE.H
C:\JUCE\MODULES\JUCE_CORE\SYSTEM\JUCE_STANDARDHEADER.H
C:\PROGRAM FILES (X86)\MICROSOFT VISUAL STUDIO\2019\PREVIEW\VC\TOOLS\MSVC\14.24.28307\INCLUDE\MEMORY
C:\PROGRAM FILES (X86)\MICROSOFT VISUAL STUDIO\2019\PREVIEW\VC\TOOLS\MSVC\14.24.28307\INCLUDE\YVALS_CORE.H
C:\PROGRAM FILES (X86)\MICROSOFT VISUAL STUDIO\2019\PREVIEW\VC\TOOLS\MSVC\14.24.28307\INCLUDE\XKEYCHECK.H
C:\PROGRAM FILES (X86)\MICROSOFT VISUAL STUDIO\2019\PREVIEW\VC\TOOLS\MSVC\14.24.28307\INCLUDE\EXCEPTION
C:\PROGRAM FILES (X86)\MICROSOFT VISUAL STUDIO\2019\PREVIEW\VC\TOOLS\MSVC\14.24.28307\INCLUDE\YVALS.H
C:\PROGRAM FILES (X86)\WINDOWS KITS\10\INCLUDE\10.0.18362.0\UCRT\CRTDBG.H
C:\PROGRAM FILES (X86)\MICROSOFT VISUAL STUDIO\2019\PREVIEW\VC\TOOLS\MSVC\14.24.28307\INCLUDE\VCRUNTIME_NEW_DEBUG.H
C:\PROGRAM FILES (X86)\MICROSOFT VISUAL STUDIO\2019\PREVIEW\VC\TOOLS\MSVC\14.24.28307\INCLUDE\VCRUNTIME_NEW.H
C:\PROGRAM FILES (X86)\MICROSOFT VISUAL STUDIO\2019\PREVIEW\VC\TOOLS\MSVC\14.24.28307\INCLUDE\CRTDEFS.H
C:\PROGRAM FILES (X86)\MICROSOFT VISUAL STUDIO\2019\PREVIEW\VC\TOOLS\MSVC\14.24.28307\INCLUDE\USE_ANSI.H
C:\PROGRAM FILES (X86)\MICROSOFT VISUAL STUDIO\2019\PREVIEW\VC\TOOLS\MSVC\14.24.28307\INCLUDE\TYPE_TRAITS
C:\PROGRAM FILES (X86)\MICROSOFT VISUAL STUDIO\2019\PREVIEW\VC\TOOLS\MSVC\14.24.28307\INCLUDE\XSTDDEF
C:\PROGRAM FILES (X86)\MICROSOFT VISUAL STUDIO\2019\PREVIEW\VC\TOOLS\MSVC\14.24.28307\INCLUDE\CSTDDEF
C:\PROGRAM FILES (X86)\MICROSOFT VISUAL STUDIO\2019\PREVIEW\VC\TOOLS\MSVC\14.24.28307\INCLUDE\XTR1COMMON
C:\PROGRAM FILES (X86)\MICROSOFT VISUAL STUDIO\2019\PREVIEW\VC\TOOLS\MSVC\14.24.28307\INCLUDE\CSTDLIB
C:\PROGRAM FILES (X86)\WINDOWS KITS\10\INCLUDE\10.0.18362.0\UCRT\MATH.H
C:\PROGRAM FILES (X86)\WINDOWS KITS\10\INCLUDE\10.0.18362.0\UCRT\CORECRT_MATH.H
C:\PROGRAM FILES (X86)\MICROSOFT VISUAL STUDIO\2019\PREVIEW\VC\TOOLS\MSVC\14.24.28307\INCLUDE\INITIALIZER_LIST
C:\PROGRAM FILES (X86)\WINDOWS KITS\10\INCLUDE\10.0.18362.0\UCRT\MALLOC.H
C:\PROGRAM FILES (X86)\MICROSOFT VISUAL STUDIO\2019\PREVIEW\VC\TOOLS\MSVC\14.24.28307\INCLUDE\VCRUNTIME_EXCEPTION.H
C:\PROGRAM FILES (X86)\MICROSOFT VISUAL STUDIO\2019\PREVIEW\VC\TOOLS\MSVC\14.24.28307\INCLUDE\EH.H
C:\PROGRAM FILES (X86)\WINDOWS KITS\10\INCLUDE\10.0.18362.0\UCRT\CORECRT_TERMINATE.H
C:\PROGRAM FILES (X86)\MICROSOFT VISUAL STUDIO\2019\PREVIEW\VC\TOOLS\MSVC\14.24.28307\INCLUDE\IOSFWD
C:\PROGRAM FILES (X86)\MICROSOFT VISUAL STUDIO\2019\PREVIEW\VC\TOOLS\MSVC\14.24.28307\INCLUDE\CSTDIO
C:\PROGRAM FILES (X86)\WINDOWS KITS\10\INCLUDE\10.0.18362.0\UCRT\STDIO.H
C:\PROGRAM FILES (X86)\WINDOWS KITS\10\INCLUDE\10.0.18362.0\UCRT\CORECRT_WSTDIO.H
C:\PROGRAM FILES (X86)\WINDOWS KITS\10\INCLUDE\10.0.18362.0\UCRT\CORECRT_STDIO_CONFIG.H
C:\PROGRAM FILES (X86)\MICROSOFT VISUAL STUDIO\2019\PREVIEW\VC\TOOLS\MSVC\14.24.28307\INCLUDE\CSTRING
C:\PROGRAM FILES (X86)\MICROSOFT VISUAL STUDIO\2019\PREVIEW\VC\TOOLS\MSVC\14.24.28307\INCLUDE\CWCHAR
C:\PROGRAM FILES (X86)\WINDOWS KITS\10\INCLUDE\10.0.18362.0\UCRT\WCHAR.H
C:\PROGRAM FILES (X86)\WINDOWS KITS\10\INCLUDE\10.0.18362.0\UCRT\CORECRT_WCONIO.H
C:\PROGRAM FILES (X86)\WINDOWS KITS\10\INCLUDE\10.0.18362.0\UCRT\CORECRT_WDIRECT.H
C:\PROGRAM FILES (X86)\WINDOWS KITS\10\INCLUDE\10.0.18362.0\UCRT\CORECRT_WIO.H
C:\PROGRAM FILES (X86)\WINDOWS KITS\10\INCLUDE\10.0.18362.0\UCRT\CORECRT_SHARE.H
C:\PROGRAM FILES (X86)\WINDOWS KITS\10\INCLUDE\10.0.18362.0\UCRT\CORECRT_WPROCESS.H
C:\PROGRAM FILES (X86)\WINDOWS KITS\10\INCLUDE\10.0.18362.0\UCRT\CORECRT_WTIME.H
C:\PROGRAM FILES (X86)\WINDOWS KITS\10\INCLUDE\10.0.18362.0\UCRT\SYS\STAT.H
C:\PROGRAM FILES (X86)\WINDOWS KITS\10\INCLUDE\10.0.18362.0\UCRT\SYS\TYPES.H
C:\PROGRAM FILES (X86)\MICROSOFT VISUAL STUDIO\2019\PREVIEW\VC\TOOLS\MSVC\14.24.28307\INCLUDE\TYPEINFO
C:\PROGRAM FILES (X86)\MICROSOFT VISUAL STUDIO\2019\PREVIEW\VC\TOOLS\MSVC\14.24.28307\INCLUDE\VCRUNTIME_TYPEINFO.H
C:\PROGRAM FILES (X86)\MICROSOFT VISUAL STUDIO\2019\PREVIEW\VC\TOOLS\MSVC\14.24.28307\INCLUDE\XMEMORY
C:\PROGRAM FILES (X86)\MICROSOFT VISUAL STUDIO\2019\PREVIEW\VC\TOOLS\MSVC\14.24.28307\INCLUDE\CSTDINT
C:\PROGRAM FILES (X86)\MICROSOFT VISUAL STUDIO\2019\PREVIEW\VC\TOOLS\MSVC\14.24.28307\INCLUDE\STDINT.H
C:\PROGRAM FILES (X86)\MICROSOFT VISUAL STUDIO\2019\PREVIEW\VC\TOOLS\MSVC\14.24.28307\INCLUDE\LIMITS
C:\PROGRAM FILES (X86)\MICROSOFT VISUAL STUDIO\2019\PREVIEW\VC\TOOLS\MSVC\14.24.28307\INCLUDE\CFLOAT
C:\PROGRAM FILES (X86)\MICROSOFT VISUAL STUDIO\2019\PREVIEW\VC\TOOLS\MSVC\14.24.28307\INCLUDE\CLIMITS
C:\PROGRAM FILES (X86)\MICROSOFT VISUAL STUDIO\2019\PREVIEW\VC\TOOLS\MSVC\14.24.28307\INCLUDE\NEW
C:\PROGRAM FILES (X86)\MICROSOFT VISUAL STUDIO\2019\PREVIEW\VC\TOOLS\MSVC\14.24.28307\INCLUDE\XATOMIC.H
C:\PROGRAM FILES (X86)\MICROSOFT VISUAL STUDIO\2019\PREVIEW\VC\TOOLS\MSVC\14.24.28307\INCLUDE\INTRIN0.H
C:\PROGRAM FILES (X86)\MICROSOFT VISUAL STUDIO\2019\PREVIEW\VC\TOOLS\MSVC\14.24.28307\INCLUDE\XUTILITY
C:\PROGRAM FILES (X86)\MICROSOFT VISUAL STUDIO\2019\PREVIEW\VC\TOOLS\MSVC\14.24.28307\INCLUDE\UTILITY
C:\PROGRAM FILES (X86)\MICROSOFT VISUAL STUDIO\2019\PREVIEW\VC\TOOLS\MSVC\14.24.28307\INCLUDE\CMATH
C:\PROGRAM FILES (X86)\MICROSOFT VISUAL STUDIO\2019\PREVIEW\VC\TOOLS\MSVC\14.24.28307\INCLUDE\XTGMATH.H
C:\PROGRAM FILES (X86)\MICROSOFT VISUAL STUDIO\2019\PREVIEW\VC\TOOLS\MSVC\14.24.28307\INCLUDE\VECTOR
C:\PROGRAM FILES (X86)\MICROSOFT VISUAL STUDIO\2019\PREVIEW\VC\TOOLS\MSVC\14.24.28307\INCLUDE\IOSTREAM
C:\PROGRAM FILES (X86)\MICROSOFT VISUAL STUDIO\2019\PREVIEW\VC\TOOLS\MSVC\14.24.28307\INCLUDE\ISTREAM
C:\PROGRAM FILES (X86)\MICROSOFT VISUAL STUDIO\2019\PREVIEW\VC\TOOLS\MSVC\14.24.28307\INCLUDE\OSTREAM
C:\PROGRAM FILES (X86)\MICROSOFT VISUAL STUDIO\2019\PREVIEW\VC\TOOLS\MSVC\14.24.28307\INCLUDE\IOS
C:\PROGRAM FILES (X86)\MICROSOFT VISUAL STUDIO\2019\PREVIEW\VC\TOOLS\MSVC\14.24.28307\INCLUDE\XLOCNUM
C:\PROGRAM FILES (X86)\MICROSOFT VISUAL STUDIO\2019\PREVIEW\VC\TOOLS\MSVC\14.24.28307\INCLUDE\STREAMBUF
C:\PROGRAM FILES (X86)\MICROSOFT VISUAL STUDIO\2019\PREVIEW\VC\TOOLS\MSVC\14.24.28307\INCLUDE\XIOSBASE
C:\PROGRAM FILES (X86)\WINDOWS KITS\10\INCLUDE\10.0.18362.0\UCRT\SHARE.H
C:\PROGRAM FILES (X86)\MICROSOFT VISUAL STUDIO\2019\PREVIEW\VC\TOOLS\MSVC\14.24.28307\INCLUDE\SYSTEM_ERROR
C:\PROGRAM FILES (X86)\MICROSOFT VISUAL STUDIO\2019\PREVIEW\VC\TOOLS\MSVC\14.24.28307\INCLUDE\CERRNO
C:\PROGRAM FILES (X86)\MICROSOFT VISUAL STUDIO\2019\PREVIEW\VC\TOOLS\MSVC\14.24.28307\INCLUDE\STDEXCEPT
C:\PROGRAM FILES (X86)\MICROSOFT VISUAL STUDIO\2019\PREVIEW\VC\TOOLS\MSVC\14.24.28307\INCLUDE\XSTRING
C:\PROGRAM FILES (X86)\MICROSOFT VISUAL STUDIO\2019\PREVIEW\VC\TOOLS\MSVC\14.24.28307\INCLUDE\XCALL_ONCE.H
C:\PROGRAM FILES (X86)\MICROSOFT VISUAL STUDIO\2019\PREVIEW\VC\TOOLS\MSVC\14.24.28307\INCLUDE\XERRC.H
C:\PROGRAM FILES (X86)\MICROSOFT VISUAL STUDIO\2019\PREVIEW\VC\TOOLS\MSVC\14.24.28307\INCLUDE\XLOCALE
C:\PROGRAM FILES (X86)\MICROSOFT VISUAL STUDIO\2019\PREVIEW\VC\TOOLS\MSVC\14.24.28307\INCLUDE\XFACET
C:\PROGRAM FILES (X86)\MICROSOFT VISUAL STUDIO\2019\PREVIEW\VC\TOOLS\MSVC\14.24.28307\INCLUDE\XLOCINFO
C:\PROGRAM FILES (X86)\MICROSOFT VISUAL STUDIO\2019\PREVIEW\VC\TOOLS\MSVC\14.24.28307\INCLUDE\XLOCINFO.H
C:\PROGRAM FILES (X86)\WINDOWS KITS\10\INCLUDE\10.0.18362.0\UCRT\LOCALE.H
C:\PROGRAM FILES (X86)\MICROSOFT VISUAL STUDIO\2019\PREVIEW\VC\TOOLS\MSVC\14.24.28307\INCLUDE\FUNCTIONAL
C:\PROGRAM FILES (X86)\MICROSOFT VISUAL STUDIO\2019\PREVIEW\VC\TOOLS\MSVC\14.24.28307\INCLUDE\TUPLE
C:\PROGRAM FILES (X86)\MICROSOFT VISUAL STUDIO\2019\PREVIEW\VC\TOOLS\MSVC\14.24.28307\INCLUDE\ALGORITHM
C:\PROGRAM FILES (X86)\MICROSOFT VISUAL STUDIO\2019\PREVIEW\VC\TOOLS\MSVC\14.24.28307\INCLUDE\ATOMIC
C:\PROGRAM FILES (X86)\MICROSOFT VISUAL STUDIO\2019\PREVIEW\VC\TOOLS\MSVC\14.24.28307\INCLUDE\SSTREAM
C:\PROGRAM FILES (X86)\MICROSOFT VISUAL STUDIO\2019\PREVIEW\VC\TOOLS\MSVC\14.24.28307\INCLUDE\STRING
C:\PROGRAM FILES (X86)\MICROSOFT VISUAL STUDIO\2019\PREVIEW\VC\TOOLS\MSVC\14.24.28307\INCLUDE\CCTYPE
C:\PROGRAM FILES (X86)\MICROSOFT VISUAL STUDIO\2019\PREVIEW\VC\TOOLS\MSVC\14.24.28307\INCLUDE\IOMANIP
C:\PROGRAM FILES (X86)\MICROSOFT VISUAL STUDIO\2019\PREVIEW\VC\TOOLS\MSVC\14.24.28307\INCLUDE\XLOCMON
C:\PROGRAM FILES (X86)\MICROSOFT VISUAL STUDIO\2019\PREVIEW\VC\TOOLS\MSVC\14.24.28307\INCLUDE\XLOCTIME
C:\PROGRAM FILES (X86)\MICROSOFT VISUAL STUDIO\2019\PREVIEW\VC\TOOLS\MSVC\14.24.28307\INCLUDE\CTIME
C:\PROGRAM FILES (X86)\WINDOWS KITS\10\INCLUDE\10.0.18362.0\UCRT\TIME.H
C:\PROGRAM FILES (X86)\MICROSOFT VISUAL STUDIO\2019\PREVIEW\VC\TOOLS\MSVC\14.24.28307\INCLUDE\MAP
C:\PROGRAM FILES (X86)\MICROSOFT VISUAL STUDIO\2019\PREVIEW\VC\TOOLS\MSVC\14.24.28307\INCLUDE\XTREE
C:\JUCE\MODULES\JUCE_CORE\SYSTEM\JUCE_COMPILERSUPPORT.H
C:\JUCE\MODULES\JUCE_CORE\SYSTEM\JUCE_PLATFORMDEFS.H
C:\PROGRAM FILES (X86)\MICROSOFT VISUAL STUDIO\2019\PREVIEW\VC\TOOLS\MSVC\14.24.28307\INCLUDE\INTRIN.H
C:\PROGRAM FILES (X86)\MICROSOFT VISUAL STUDIO\2019\PREVIEW\VC\TOOLS\MSVC\14.24.28307\INCLUDE\SETJMP.H
C:\PROGRAM FILES (X86)\MICROSOFT VISUAL STUDIO\2019\PREVIEW\VC\TOOLS\MSVC\14.24.28307\INCLUDE\IMMINTRIN.H
C:\PROGRAM FILES (X86)\MICROSOFT VISUAL STUDIO\2019\PREVIEW\VC\TOOLS\MSVC\14.24.28307\INCLUDE\WMMINTRIN.H
C:\PROGRAM FILES (X86)\MICROSOFT VISUAL STUDIO\2019\PREVIEW\VC\TOOLS\MSVC\14.24.28307\INCLUDE\NMMINTRIN.H
C:\PROGRAM FILES (X86)\MICROSOFT VISUAL STUDIO\2019\PREVIEW\VC\TOOLS\MSVC\14.24.28307\INCLUDE\SMMINTRIN.H
C:\PROGRAM FILES (X86)\MICROSOFT VISUAL STUDIO\2019\PREVIEW\VC\TOOLS\MSVC\14.24.28307\INCLUDE\TMMINTRIN.H
C:\PROGRAM FILES (X86)\MICROSOFT VISUAL STUDIO\2019\PREVIEW\VC\TOOLS\MSVC\14.24.28307\INCLUDE\PMMINTRIN.H
C:\PROGRAM FILES (X86)\MICROSOFT VISUAL STUDIO\2019\PREVIEW\VC\TOOLS\MSVC\14.24.28307\INCLUDE\EMMINTRIN.H
C:\PROGRAM FILES (X86)\MICROSOFT VISUAL STUDIO\2019\PREVIEW\VC\TOOLS\MSVC\14.24.28307\INCLUDE\XMMINTRIN.H
C:\PROGRAM FILES (X86)\MICROSOFT VISUAL STUDIO\2019\PREVIEW\VC\TOOLS\MSVC\14.24.28307\INCLUDE\MMINTRIN.H
C:\PROGRAM FILES (X86)\MICROSOFT VISUAL STUDIO\2019\PREVIEW\VC\TOOLS\MSVC\14.24.28307\INCLUDE\ZMMINTRIN.H
C:\PROGRAM FILES (X86)\MICROSOFT VISUAL STUDIO\2019\PREVIEW\VC\TOOLS\MSVC\14.24.28307\INCLUDE\AMMINTRIN.H
C:\JUCE\MODULES\JUCE_CORE\MEMORY\JUCE_MEMORY.H
C:\JUCE\MODULES\JUCE_CORE\MATHS\JUCE_MATHSFUNCTIONS.H
C:\JUCE\MODULES\JUCE_CORE\MEMORY\JUCE_BYTEORDER.H
C:\JUCE\MODULES\JUCE_CORE\MEMORY\JUCE_ATOMIC.H
C:\JUCE\MODULES\JUCE_CORE\TEXT\JUCE_CHARACTERFUNCTIONS.H
C:\JUCE\MODULES\JUCE_CORE\TEXT\JUCE_CHARPOINTER_UTF8.H
C:\JUCE\MODULES\JUCE_CORE\TEXT\JUCE_CHARPOINTER_UTF16.H
C:\JUCE\MODULES\JUCE_CORE\TEXT\JUCE_CHARPOINTER_UTF32.H
C:\JUCE\MODULES\JUCE_CORE\TEXT\JUCE_CHARPOINTER_ASCII.H
C:\JUCE\MODULES\JUCE_CORE\TEXT\JUCE_STRING.H
C:\JUCE\MODULES\JUCE_CORE\TEXT\JUCE_STRINGREF.H
C:\JUCE\MODULES\JUCE_CORE\LOGGING\JUCE_LOGGER.H
C:\JUCE\MODULES\JUCE_CORE\MEMORY\JUCE_LEAKEDOBJECTDETECTOR.H
C:\JUCE\MODULES\JUCE_CORE\MEMORY\JUCE_CONTAINERDELETEPOLICY.H
C:\JUCE\MODULES\JUCE_CORE\MEMORY\JUCE_HEAPBLOCK.H
C:\JUCE\MODULES\JUCE_CORE\MEMORY\JUCE_MEMORYBLOCK.H
C:\JUCE\MODULES\JUCE_CORE\MEMORY\JUCE_REFERENCECOUNTEDOBJECT.H
C:\JUCE\MODULES\JUCE_CORE\MEMORY\JUCE_SCOPEDPOINTER.H
C:\JUCE\MODULES\JUCE_CORE\MEMORY\JUCE_OPTIONALSCOPEDPOINTER.H
C:\JUCE\MODULES\JUCE_CORE\MEMORY\JUCE_SINGLETON.H
C:\JUCE\MODULES\JUCE_CORE\MEMORY\JUCE_WEAKREFERENCE.H
C:\JUCE\MODULES\JUCE_CORE\THREADS\JUCE_SCOPEDLOCK.H
C:\JUCE\MODULES\JUCE_CORE\THREADS\JUCE_CRITICALSECTION.H
C:\JUCE\MODULES\JUCE_CORE\MATHS\JUCE_RANGE.H
C:\JUCE\MODULES\JUCE_CORE\MATHS\JUCE_NORMALISABLERANGE.H
C:\JUCE\MODULES\JUCE_CORE\MATHS\JUCE_STATISTICSACCUMULATOR.H
C:\JUCE\MODULES\JUCE_CORE\CONTAINERS\JUCE_ELEMENTCOMPARATOR.H
C:\JUCE\MODULES\JUCE_CORE\CONTAINERS\JUCE_ARRAYALLOCATIONBASE.H
C:\JUCE\MODULES\JUCE_CORE\CONTAINERS\JUCE_ARRAYBASE.H
C:\JUCE\MODULES\JUCE_CORE\CONTAINERS\JUCE_ARRAY.H
C:\JUCE\MODULES\JUCE_CORE\CONTAINERS\JUCE_LINKEDLISTPOINTER.H
C:\JUCE\MODULES\JUCE_CORE\CONTAINERS\JUCE_LISTENERLIST.H
C:\JUCE\MODULES\JUCE_CORE\CONTAINERS\JUCE_OWNEDARRAY.H
C:\JUCE\MODULES\JUCE_CORE\CONTAINERS\JUCE_REFERENCECOUNTEDARRAY.H
C:\JUCE\MODULES\JUCE_CORE\CONTAINERS\JUCE_SCOPEDVALUESETTER.H
C:\JUCE\MODULES\JUCE_CORE\CONTAINERS\JUCE_SORTEDSET.H
C:\JUCE\MODULES\JUCE_CORE\CONTAINERS\JUCE_SPARSESET.H
C:\JUCE\MODULES\JUCE_CORE\CONTAINERS\JUCE_ABSTRACTFIFO.H
C:\JUCE\MODULES\JUCE_CORE\TEXT\JUCE_NEWLINE.H
C:\JUCE\MODULES\JUCE_CORE\TEXT\JUCE_STRINGPOOL.H
C:\JUCE\MODULES\JUCE_CORE\TEXT\JUCE_IDENTIFIER.H
C:\JUCE\MODULES\JUCE_CORE\TEXT\JUCE_STRINGARRAY.H
C:\JUCE\MODULES\JUCE_CORE\SYSTEM\JUCE_SYSTEMSTATS.H
C:\JUCE\MODULES\JUCE_CORE\MEMORY\JUCE_HEAVYWEIGHTLEAKEDOBJECTDETECTOR.H
C:\JUCE\MODULES\JUCE_CORE\TEXT\JUCE_STRINGPAIRARRAY.H
C:\JUCE\MODULES\JUCE_CORE\TEXT\JUCE_TEXTDIFF.H
C:\JUCE\MODULES\JUCE_CORE\TEXT\JUCE_LOCALISEDSTRINGS.H
C:\JUCE\MODULES\JUCE_CORE\TEXT\JUCE_BASE64.H
C:\JUCE\MODULES\JUCE_CORE\MISC\JUCE_RESULT.H
C:\JUCE\MODULES\JUCE_CORE\MISC\JUCE_UUID.H
C:\JUCE\MODULES\JUCE_CORE\MISC\JUCE_CONSOLEAPPLICATION.H
C:\JUCE\MODULES\JUCE_CORE\CONTAINERS\JUCE_VARIANT.H
C:\JUCE\MODULES\JUCE_CORE\CONTAINERS\JUCE_NAMEDVALUESET.H
C:\JUCE\MODULES\JUCE_CORE\CONTAINERS\JUCE_DYNAMICOBJECT.H
C:\JUCE\MODULES\JUCE_CORE\CONTAINERS\JUCE_HASHMAP.H
C:\JUCE\MODULES\JUCE_CORE\TIME\JUCE_RELATIVETIME.H
C:\JUCE\MODULES\JUCE_CORE\TIME\JUCE_TIME.H
C:\JUCE\MODULES\JUCE_CORE\STREAMS\JUCE_INPUTSTREAM.H
C:\JUCE\MODULES\JUCE_CORE\STREAMS\JUCE_OUTPUTSTREAM.H
C:\JUCE\MODULES\JUCE_CORE\STREAMS\JUCE_BUFFEREDINPUTSTREAM.H
C:\JUCE\MODULES\JUCE_CORE\STREAMS\JUCE_MEMORYINPUTSTREAM.H
C:\JUCE\MODULES\JUCE_CORE\STREAMS\JUCE_MEMORYOUTPUTSTREAM.H
C:\JUCE\MODULES\JUCE_CORE\STREAMS\JUCE_SUBREGIONSTREAM.H
C:\JUCE\MODULES\JUCE_CORE\STREAMS\JUCE_INPUTSOURCE.H
C:\JUCE\MODULES\JUCE_CORE\FILES\JUCE_FILE.H
C:\JUCE\MODULES\JUCE_CORE\FILES\JUCE_DIRECTORYITERATOR.H
C:\JUCE\MODULES\JUCE_CORE\FILES\JUCE_FILEINPUTSTREAM.H
C:\JUCE\MODULES\JUCE_CORE\FILES\JUCE_FILEOUTPUTSTREAM.H
C:\JUCE\MODULES\JUCE_CORE\FILES\JUCE_FILESEARCHPATH.H
C:\JUCE\MODULES\JUCE_CORE\FILES\JUCE_MEMORYMAPPEDFILE.H
C:\JUCE\MODULES\JUCE_CORE\FILES\JUCE_TEMPORARYFILE.H
C:\JUCE\MODULES\JUCE_CORE\FILES\JUCE_FILEFILTER.H
C:\JUCE\MODULES\JUCE_CORE\FILES\JUCE_WILDCARDFILEFILTER.H
C:\JUCE\MODULES\JUCE_CORE\STREAMS\JUCE_FILEINPUTSOURCE.H
C:\JUCE\MODULES\JUCE_CORE\LOGGING\JUCE_FILELOGGER.H
C:\JUCE\MODULES\JUCE_CORE\JAVASCRIPT\JUCE_JSON.H
C:\JUCE\MODULES\JUCE_CORE\JAVASCRIPT\JUCE_JAVASCRIPT.H
C:\JUCE\MODULES\JUCE_CORE\MATHS\JUCE_BIGINTEGER.H
C:\JUCE\MODULES\JUCE_CORE\MATHS\JUCE_EXPRESSION.H
C:\JUCE\MODULES\JUCE_CORE\MATHS\JUCE_RANDOM.H
C:\JUCE\MODULES\JUCE_CORE\MISC\JUCE_RUNTIMEPERMISSIONS.H
C:\JUCE\MODULES\JUCE_CORE\MISC\JUCE_WINDOWSREGISTRY.H
C:\JUCE\MODULES\JUCE_CORE\THREADS\JUCE_CHILDPROCESS.H
C:\JUCE\MODULES\JUCE_CORE\THREADS\JUCE_DYNAMICLIBRARY.H
C:\JUCE\MODULES\JUCE_CORE\THREADS\JUCE_HIGHRESOLUTIONTIMER.H
C:\JUCE\MODULES\JUCE_CORE\THREADS\JUCE_INTERPROCESSLOCK.H
C:\JUCE\MODULES\JUCE_CORE\THREADS\JUCE_PROCESS.H
C:\JUCE\MODULES\JUCE_CORE\THREADS\JUCE_SPINLOCK.H
C:\JUCE\MODULES\JUCE_CORE\THREADS\JUCE_WAITABLEEVENT.H
C:\JUCE\MODULES\JUCE_CORE\THREADS\JUCE_THREAD.H
C:\JUCE\MODULES\JUCE_CORE\THREADS\JUCE_THREADLOCALVALUE.H
C:\JUCE\MODULES\JUCE_CORE\THREADS\JUCE_THREADPOOL.H
C:\JUCE\MODULES\JUCE_CORE\THREADS\JUCE_TIMESLICETHREAD.H
C:\JUCE\MODULES\JUCE_CORE\THREADS\JUCE_READWRITELOCK.H
C:\JUCE\MODULES\JUCE_CORE\THREADS\JUCE_SCOPEDREADLOCK.H
C:\JUCE\MODULES\JUCE_CORE\THREADS\JUCE_SCOPEDWRITELOCK.H
C:\JUCE\MODULES\JUCE_CORE\NETWORK\JUCE_IPADDRESS.H
C:\JUCE\MODULES\JUCE_CORE\NETWORK\JUCE_MACADDRESS.H
C:\JUCE\MODULES\JUCE_CORE\NETWORK\JUCE_NAMEDPIPE.H
C:\JUCE\MODULES\JUCE_CORE\NETWORK\JUCE_SOCKET.H
C:\JUCE\MODULES\JUCE_CORE\NETWORK\JUCE_URL.H
C:\JUCE\MODULES\JUCE_CORE\NETWORK\JUCE_WEBINPUTSTREAM.H
C:\JUCE\MODULES\JUCE_CORE\STREAMS\JUCE_URLINPUTSOURCE.H
C:\JUCE\MODULES\JUCE_CORE\TIME\JUCE_PERFORMANCECOUNTER.H
C:\JUCE\MODULES\JUCE_CORE\UNIT_TESTS\JUCE_UNITTEST.H
C:\JUCE\MODULES\JUCE_CORE\XML\JUCE_XMLDOCUMENT.H
C:\JUCE\MODULES\JUCE_CORE\XML\JUCE_XMLELEMENT.H
C:\JUCE\MODULES\JUCE_CORE\ZIP\JUCE_GZIPCOMPRESSOROUTPUTSTREAM.H
C:\JUCE\MODULES\JUCE_CORE\ZIP\JUCE_GZIPDECOMPRESSORINPUTSTREAM.H
C:\JUCE\MODULES\JUCE_CORE\ZIP\JUCE_ZIPFILE.H
C:\JUCE\MODULES\JUCE_CORE\CONTAINERS\JUCE_PROPERTYSET.H
C:\JUCE\MODULES\JUCE_CORE\MEMORY\JUCE_SHAREDRESOURCEPOINTER.H
C:\JUCE\MODULES\JUCE_EVENTS\JUCE_EVENTS.H
C:\JUCE\MODULES\JUCE_EVENTS\MESSAGES\JUCE_MESSAGEMANAGER.H
C:\JUCE\MODULES\JUCE_EVENTS\MESSAGES\JUCE_MESSAGE.H
C:\JUCE\MODULES\JUCE_EVENTS\MESSAGES\JUCE_MESSAGELISTENER.H
C:\JUCE\MODULES\JUCE_EVENTS\MESSAGES\JUCE_CALLBACKMESSAGE.H
C:\JUCE\MODULES\JUCE_EVENTS\MESSAGES\JUCE_DELETEDATSHUTDOWN.H
C:\JUCE\MODULES\JUCE_EVENTS\MESSAGES\JUCE_NOTIFICATIONTYPE.H
C:\JUCE\MODULES\JUCE_EVENTS\MESSAGES\JUCE_APPLICATIONBASE.H
C:\JUCE\MODULES\JUCE_EVENTS\MESSAGES\JUCE_INITIALISATION.H
C:\JUCE\MODULES\JUCE_EVENTS\MESSAGES\JUCE_MOUNTEDVOLUMELISTCHANGEDETECTOR.H
C:\JUCE\MODULES\JUCE_EVENTS\BROADCASTERS\JUCE_ACTIONBROADCASTER.H
C:\JUCE\MODULES\JUCE_EVENTS\BROADCASTERS\JUCE_ACTIONLISTENER.H
C:\JUCE\MODULES\JUCE_EVENTS\BROADCASTERS\JUCE_ASYNCUPDATER.H
C:\JUCE\MODULES\JUCE_EVENTS\BROADCASTERS\JUCE_CHANGELISTENER.H
C:\JUCE\MODULES\JUCE_EVENTS\BROADCASTERS\JUCE_CHANGEBROADCASTER.H
C:\JUCE\MODULES\JUCE_EVENTS\TIMERS\JUCE_TIMER.H
C:\JUCE\MODULES\JUCE_EVENTS\TIMERS\JUCE_MULTITIMER.H
C:\JUCE\MODULES\JUCE_EVENTS\INTERPROCESS\JUCE_INTERPROCESSCONNECTION.H
C:\JUCE\MODULES\JUCE_EVENTS\INTERPROCESS\JUCE_INTERPROCESSCONNECTIONSERVER.H
C:\JUCE\MODULES\JUCE_EVENTS\INTERPROCESS\JUCE_CONNECTEDCHILDPROCESS.H
C:\JUCE\MODULES\JUCE_EVENTS\INTERPROCESS\JUCE_NETWORKSERVICEDISCOVERY.H
C:\JUCE\MODULES\JUCE_GRAPHICS\GEOMETRY\JUCE_AFFINETRANSFORM.H
C:\JUCE\MODULES\JUCE_GRAPHICS\GEOMETRY\JUCE_POINT.H
C:\JUCE\MODULES\JUCE_GRAPHICS\GEOMETRY\JUCE_LINE.H
C:\JUCE\MODULES\JUCE_GRAPHICS\GEOMETRY\JUCE_RECTANGLE.H
C:\JUCE\MODULES\JUCE_GRAPHICS\GEOMETRY\JUCE_PARALLELOGRAM.H
C:\JUCE\MODULES\JUCE_GRAPHICS\PLACEMENT\JUCE_JUSTIFICATION.H
C:\JUCE\MODULES\JUCE_GRAPHICS\GEOMETRY\JUCE_PATH.H
C:\JUCE\MODULES\JUCE_GRAPHICS\GEOMETRY\JUCE_RECTANGLELIST.H
C:\JUCE\MODULES\JUCE_GRAPHICS\COLOUR\JUCE_PIXELFORMATS.H
C:\JUCE\MODULES\JUCE_GRAPHICS\COLOUR\JUCE_COLOUR.H
C:\JUCE\MODULES\JUCE_GRAPHICS\COLOUR\JUCE_COLOURGRADIENT.H
C:\JUCE\MODULES\JUCE_GRAPHICS\COLOUR\JUCE_COLOURS.H
C:\JUCE\MODULES\JUCE_GRAPHICS\GEOMETRY\JUCE_BORDERSIZE.H
C:\JUCE\MODULES\JUCE_GRAPHICS\GEOMETRY\JUCE_EDGETABLE.H
C:\JUCE\MODULES\JUCE_GRAPHICS\GEOMETRY\JUCE_PATHITERATOR.H
C:\JUCE\MODULES\JUCE_GRAPHICS\GEOMETRY\JUCE_PATHSTROKETYPE.H
C:\JUCE\MODULES\JUCE_GRAPHICS\PLACEMENT\JUCE_RECTANGLEPLACEMENT.H
C:\JUCE\MODULES\JUCE_GRAPHICS\IMAGES\JUCE_IMAGECACHE.H
C:\JUCE\MODULES\JUCE_GRAPHICS\IMAGES\JUCE_IMAGECONVOLUTIONKERNEL.H
C:\JUCE\MODULES\JUCE_GRAPHICS\IMAGES\JUCE_IMAGEFILEFORMAT.H
C:\JUCE\MODULES\JUCE_GRAPHICS\FONTS\JUCE_TYPEFACE.H
C:\JUCE\MODULES\JUCE_GRAPHICS\FONTS\JUCE_FONT.H
C:\JUCE\MODULES\JUCE_GRAPHICS\FONTS\JUCE_ATTRIBUTEDSTRING.H
C:\JUCE\MODULES\JUCE_GRAPHICS\FONTS\JUCE_GLYPHARRANGEMENT.H
C:\JUCE\MODULES\JUCE_GRAPHICS\FONTS\JUCE_TEXTLAYOUT.H
C:\JUCE\MODULES\JUCE_GRAPHICS\FONTS\JUCE_CUSTOMTYPEFACE.H
C:\JUCE\MODULES\JUCE_GRAPHICS\CONTEXTS\JUCE_GRAPHICSCONTEXT.H
C:\JUCE\MODULES\JUCE_GRAPHICS\CONTEXTS\JUCE_LOWLEVELGRAPHICSCONTEXT.H
C:\JUCE\MODULES\JUCE_GRAPHICS\IMAGES\JUCE_IMAGE.H
C:\JUCE\MODULES\JUCE_GRAPHICS\COLOUR\JUCE_FILLTYPE.H
C:\JUCE\MODULES\JUCE_GRAPHICS\NATIVE\JUCE_RENDERINGHELPERS.H
C:\JUCE\MODULES\JUCE_GRAPHICS\CONTEXTS\JUCE_LOWLEVELGRAPHICSSOFTWARERENDERER.H
C:\JUCE\MODULES\JUCE_GRAPHICS\CONTEXTS\JUCE_LOWLEVELGRAPHICSPOSTSCRIPTRENDERER.H
C:\JUCE\MODULES\JUCE_GRAPHICS\EFFECTS\JUCE_IMAGEEFFECTFILTER.H
C:\JUCE\MODULES\JUCE_GRAPHICS\EFFECTS\JUCE_DROPSHADOWEFFECT.H
C:\JUCE\MODULES\JUCE_GRAPHICS\EFFECTS\JUCE_GLOWEFFECT.H
C:\JUCE\MODULES\JUCE_DATA_STRUCTURES\JUCE_DATA_STRUCTURES.H
C:\JUCE\MODULES\JUCE_DATA_STRUCTURES\UNDOMANAGER\JUCE_UNDOABLEACTION.H
C:\JUCE\MODULES\JUCE_DATA_STRUCTURES\UNDOMANAGER\JUCE_UNDOMANAGER.H
C:\JUCE\MODULES\JUCE_DATA_STRUCTURES\VALUES\JUCE_VALUE.H
C:\JUCE\MODULES\JUCE_DATA_STRUCTURES\VALUES\JUCE_VALUETREE.H
C:\JUCE\MODULES\JUCE_DATA_STRUCTURES\VALUES\JUCE_VALUETREESYNCHRONISER.H
C:\JUCE\MODULES\JUCE_DATA_STRUCTURES\VALUES\JUCE_CACHEDVALUE.H
C:\JUCE\MODULES\JUCE_DATA_STRUCTURES\VALUES\JUCE_VALUEWITHDEFAULT.H
C:\JUCE\MODULES\JUCE_DATA_STRUCTURES\APP_PROPERTIES\JUCE_PROPERTIESFILE.H
C:\JUCE\MODULES\JUCE_DATA_STRUCTURES\APP_PROPERTIES\JUCE_APPLICATIONPROPERTIES.H
C:\JUCE\MODULES\JUCE_GUI_BASICS\MOUSE\JUCE_MOUSECURSOR.H
C:\JUCE\MODULES\JUCE_GUI_BASICS\MOUSE\JUCE_MOUSELISTENER.H
C:\JUCE\MODULES\JUCE_GUI_BASICS\KEYBOARD\JUCE_MODIFIERKEYS.H
C:\JUCE\MODULES\JUCE_GUI_BASICS\MOUSE\JUCE_MOUSEINPUTSOURCE.H
C:\JUCE\MODULES\JUCE_GUI_BASICS\MOUSE\JUCE_MOUSEEVENT.H
C:\JUCE\MODULES\JUCE_GUI_BASICS\KEYBOARD\JUCE_KEYPRESS.H
C:\JUCE\MODULES\JUCE_GUI_BASICS\KEYBOARD\JUCE_KEYLISTENER.H
C:\JUCE\MODULES\JUCE_GUI_BASICS\KEYBOARD\JUCE_KEYBOARDFOCUSTRAVERSER.H
C:\JUCE\MODULES\JUCE_GUI_BASICS\COMPONENTS\JUCE_MODALCOMPONENTMANAGER.H
C:\JUCE\MODULES\JUCE_GUI_BASICS\COMPONENTS\JUCE_COMPONENTLISTENER.H
C:\JUCE\MODULES\JUCE_GUI_BASICS\COMPONENTS\JUCE_CACHEDCOMPONENTIMAGE.H
C:\JUCE\MODULES\JUCE_GUI_BASICS\COMPONENTS\JUCE_COMPONENT.H
C:\JUCE\MODULES\JUCE_GUI_BASICS\LAYOUT\JUCE_COMPONENTANIMATOR.H
C:\JUCE\MODULES\JUCE_GUI_BASICS\DESKTOP\JUCE_DESKTOP.H
C:\JUCE\MODULES\JUCE_GUI_BASICS\DESKTOP\JUCE_DISPLAYS.H
C:\JUCE\MODULES\JUCE_GUI_BASICS\LAYOUT\JUCE_COMPONENTBOUNDSCONSTRAINER.H
C:\JUCE\MODULES\JUCE_GUI_BASICS\MOUSE\JUCE_COMPONENTDRAGGER.H
C:\JUCE\MODULES\JUCE_GUI_BASICS\MOUSE\JUCE_DRAGANDDROPTARGET.H
C:\JUCE\MODULES\JUCE_GUI_BASICS\MOUSE\JUCE_DRAGANDDROPCONTAINER.H
C:\JUCE\MODULES\JUCE_GUI_BASICS\MOUSE\JUCE_FILEDRAGANDDROPTARGET.H
C:\JUCE\MODULES\JUCE_GUI_BASICS\MOUSE\JUCE_SELECTEDITEMSET.H
C:\JUCE\MODULES\JUCE_GUI_BASICS\MOUSE\JUCE_MOUSEINACTIVITYDETECTOR.H
C:\JUCE\MODULES\JUCE_GUI_BASICS\MOUSE\JUCE_TEXTDRAGANDDROPTARGET.H
C:\JUCE\MODULES\JUCE_GUI_BASICS\MOUSE\JUCE_TOOLTIPCLIENT.H
C:\JUCE\MODULES\JUCE_GUI_BASICS\KEYBOARD\JUCE_CARETCOMPONENT.H
C:\JUCE\MODULES\JUCE_GUI_BASICS\KEYBOARD\JUCE_SYSTEMCLIPBOARD.H
C:\JUCE\MODULES\JUCE_GUI_BASICS\KEYBOARD\JUCE_TEXTEDITORKEYMAPPER.H
C:\JUCE\MODULES\JUCE_GUI_BASICS\KEYBOARD\JUCE_TEXTINPUTTARGET.H
C:\JUCE\MODULES\JUCE_GUI_BASICS\COMMANDS\JUCE_APPLICATIONCOMMANDID.H
C:\JUCE\MODULES\JUCE_GUI_BASICS\COMMANDS\JUCE_APPLICATIONCOMMANDINFO.H
C:\JUCE\MODULES\JUCE_GUI_BASICS\COMMANDS\JUCE_APPLICATIONCOMMANDTARGET.H
C:\JUCE\MODULES\JUCE_GUI_BASICS\COMMANDS\JUCE_APPLICATIONCOMMANDMANAGER.H
C:\JUCE\MODULES\JUCE_GUI_BASICS\COMMANDS\JUCE_KEYPRESSMAPPINGSET.H
C:\JUCE\MODULES\JUCE_GUI_BASICS\BUTTONS\JUCE_BUTTON.H
C:\JUCE\MODULES\JUCE_GUI_BASICS\BUTTONS\JUCE_ARROWBUTTON.H
C:\JUCE\MODULES\JUCE_GUI_BASICS\BUTTONS\JUCE_DRAWABLEBUTTON.H
C:\JUCE\MODULES\JUCE_GUI_BASICS\BUTTONS\JUCE_HYPERLINKBUTTON.H
C:\JUCE\MODULES\JUCE_GUI_BASICS\BUTTONS\JUCE_IMAGEBUTTON.H
C:\JUCE\MODULES\JUCE_GUI_BASICS\BUTTONS\JUCE_SHAPEBUTTON.H
C:\JUCE\MODULES\JUCE_GUI_BASICS\BUTTONS\JUCE_TEXTBUTTON.H
C:\JUCE\MODULES\JUCE_GUI_BASICS\BUTTONS\JUCE_TOGGLEBUTTON.H
C:\JUCE\MODULES\JUCE_GUI_BASICS\LAYOUT\JUCE_ANIMATEDPOSITION.H
C:\JUCE\MODULES\JUCE_GUI_BASICS\LAYOUT\JUCE_ANIMATEDPOSITIONBEHAVIOURS.H
C:\JUCE\MODULES\JUCE_GUI_BASICS\LAYOUT\JUCE_COMPONENTBUILDER.H
C:\JUCE\MODULES\JUCE_GUI_BASICS\LAYOUT\JUCE_COMPONENTMOVEMENTWATCHER.H
C:\JUCE\MODULES\JUCE_GUI_BASICS\LAYOUT\JUCE_CONCERTINAPANEL.H
C:\JUCE\MODULES\JUCE_GUI_BASICS\LAYOUT\JUCE_GROUPCOMPONENT.H
C:\JUCE\MODULES\JUCE_GUI_BASICS\LAYOUT\JUCE_RESIZABLEBORDERCOMPONENT.H
C:\JUCE\MODULES\JUCE_GUI_BASICS\LAYOUT\JUCE_RESIZABLECORNERCOMPONENT.H
C:\JUCE\MODULES\JUCE_GUI_BASICS\LAYOUT\JUCE_RESIZABLEEDGECOMPONENT.H
C:\JUCE\MODULES\JUCE_GUI_BASICS\LAYOUT\JUCE_SCROLLBAR.H
C:\JUCE\MODULES\JUCE_GUI_BASICS\LAYOUT\JUCE_STRETCHABLELAYOUTMANAGER.H
C:\JUCE\MODULES\JUCE_GUI_BASICS\LAYOUT\JUCE_STRETCHABLELAYOUTRESIZERBAR.H
C:\JUCE\MODULES\JUCE_GUI_BASICS\LAYOUT\JUCE_STRETCHABLEOBJECTRESIZER.H
C:\JUCE\MODULES\JUCE_GUI_BASICS\LAYOUT\JUCE_TABBEDBUTTONBAR.H
C:\JUCE\MODULES\JUCE_GUI_BASICS\LAYOUT\JUCE_TABBEDCOMPONENT.H
C:\JUCE\MODULES\JUCE_GUI_BASICS\LAYOUT\JUCE_VIEWPORT.H
C:\JUCE\MODULES\JUCE_GUI_BASICS\MENUS\JUCE_POPUPMENU.H
C:\JUCE\MODULES\JUCE_GUI_BASICS\MENUS\JUCE_MENUBARMODEL.H
C:\JUCE\MODULES\JUCE_GUI_BASICS\MENUS\JUCE_MENUBARCOMPONENT.H
C:\JUCE\MODULES\JUCE_GUI_BASICS\POSITIONING\JUCE_RELATIVECOORDINATE.H
C:\JUCE\MODULES\JUCE_GUI_BASICS\POSITIONING\JUCE_MARKERLIST.H
C:\JUCE\MODULES\JUCE_GUI_BASICS\POSITIONING\JUCE_RELATIVEPOINT.H
C:\JUCE\MODULES\JUCE_GUI_BASICS\POSITIONING\JUCE_RELATIVERECTANGLE.H
C:\JUCE\MODULES\JUCE_GUI_BASICS\POSITIONING\JUCE_RELATIVECOORDINATEPOSITIONER.H
C:\JUCE\MODULES\JUCE_GUI_BASICS\POSITIONING\JUCE_RELATIVEPARALLELOGRAM.H
C:\JUCE\MODULES\JUCE_GUI_BASICS\POSITIONING\JUCE_RELATIVEPOINTPATH.H
C:\JUCE\MODULES\JUCE_GUI_BASICS\DRAWABLES\JUCE_DRAWABLE.H
C:\JUCE\MODULES\JUCE_GUI_BASICS\DRAWABLES\JUCE_DRAWABLESHAPE.H
C:\JUCE\MODULES\JUCE_GUI_BASICS\DRAWABLES\JUCE_DRAWABLECOMPOSITE.H
C:\JUCE\MODULES\JUCE_GUI_BASICS\DRAWABLES\JUCE_DRAWABLEIMAGE.H
C:\JUCE\MODULES\JUCE_GUI_BASICS\DRAWABLES\JUCE_DRAWABLEPATH.H
C:\JUCE\MODULES\JUCE_GUI_BASICS\DRAWABLES\JUCE_DRAWABLERECTANGLE.H
C:\JUCE\MODULES\JUCE_GUI_BASICS\DRAWABLES\JUCE_DRAWABLETEXT.H
C:\JUCE\MODULES\JUCE_GUI_BASICS\WIDGETS\JUCE_TEXTEDITOR.H
C:\JUCE\MODULES\JUCE_GUI_BASICS\WIDGETS\JUCE_LABEL.H
C:\JUCE\MODULES\JUCE_GUI_BASICS\WIDGETS\JUCE_COMBOBOX.H
C:\JUCE\MODULES\JUCE_GUI_BASICS\WIDGETS\JUCE_IMAGECOMPONENT.H
C:\JUCE\MODULES\JUCE_GUI_BASICS\WIDGETS\JUCE_LISTBOX.H
C:\JUCE\MODULES\JUCE_GUI_BASICS\WIDGETS\JUCE_PROGRESSBAR.H
C:\JUCE\MODULES\JUCE_GUI_BASICS\WIDGETS\JUCE_SLIDER.H
C:\JUCE\MODULES\JUCE_GUI_BASICS\WIDGETS\JUCE_TABLEHEADERCOMPONENT.H
C:\JUCE\MODULES\JUCE_GUI_BASICS\WIDGETS\JUCE_TABLELISTBOX.H
C:\JUCE\MODULES\JUCE_GUI_BASICS\WIDGETS\JUCE_TOOLBAR.H
C:\JUCE\MODULES\JUCE_GUI_BASICS\WIDGETS\JUCE_TOOLBARITEMCOMPONENT.H
C:\JUCE\MODULES\JUCE_GUI_BASICS\WIDGETS\JUCE_TOOLBARITEMFACTORY.H
C:\JUCE\MODULES\JUCE_GUI_BASICS\WIDGETS\JUCE_TOOLBARITEMPALETTE.H
C:\JUCE\MODULES\JUCE_GUI_BASICS\MENUS\JUCE_BURGERMENUCOMPONENT.H
C:\JUCE\MODULES\JUCE_GUI_BASICS\BUTTONS\JUCE_TOOLBARBUTTON.H
C:\JUCE\MODULES\JUCE_GUI_BASICS\MISC\JUCE_DROPSHADOWER.H
C:\JUCE\MODULES\JUCE_GUI_BASICS\MISC\JUCE_JUCESPLASHSCREEN.H
C:\JUCE\MODULES\JUCE_GUI_BASICS\WIDGETS\JUCE_TREEVIEW.H
C:\JUCE\MODULES\JUCE_GUI_BASICS\WINDOWS\JUCE_TOPLEVELWINDOW.H
C:\JUCE\MODULES\JUCE_GUI_BASICS\WINDOWS\JUCE_ALERTWINDOW.H
C:\JUCE\MODULES\JUCE_GUI_BASICS\WINDOWS\JUCE_CALLOUTBOX.H
C:\JUCE\MODULES\JUCE_GUI_BASICS\WINDOWS\JUCE_COMPONENTPEER.H
C:\JUCE\MODULES\JUCE_GUI_BASICS\WINDOWS\JUCE_RESIZABLEWINDOW.H
C:\JUCE\MODULES\JUCE_GUI_BASICS\WINDOWS\JUCE_DOCUMENTWINDOW.H
C:\JUCE\MODULES\JUCE_GUI_BASICS\WINDOWS\JUCE_DIALOGWINDOW.H
C:\JUCE\MODULES\JUCE_GUI_BASICS\WINDOWS\JUCE_NATIVEMESSAGEBOX.H
C:\JUCE\MODULES\JUCE_GUI_BASICS\WINDOWS\JUCE_THREADWITHPROGRESSWINDOW.H
C:\JUCE\MODULES\JUCE_GUI_BASICS\WINDOWS\JUCE_TOOLTIPWINDOW.H
C:\JUCE\MODULES\JUCE_GUI_BASICS\LAYOUT\JUCE_MULTIDOCUMENTPANEL.H
C:\JUCE\MODULES\JUCE_GUI_BASICS\LAYOUT\JUCE_SIDEPANEL.H
C:\JUCE\MODULES\JUCE_GUI_BASICS\FILEBROWSER\JUCE_FILEBROWSERLISTENER.H
C:\JUCE\MODULES\JUCE_GUI_BASICS\FILEBROWSER\JUCE_DIRECTORYCONTENTSLIST.H
C:\JUCE\MODULES\JUCE_GUI_BASICS\FILEBROWSER\JUCE_DIRECTORYCONTENTSDISPLAYCOMPONENT.H
C:\JUCE\MODULES\JUCE_GUI_BASICS\FILEBROWSER\JUCE_FILEBROWSERCOMPONENT.H
C:\JUCE\MODULES\JUCE_GUI_BASICS\FILEBROWSER\JUCE_FILECHOOSER.H
C:\JUCE\MODULES\JUCE_GUI_BASICS\FILEBROWSER\JUCE_FILECHOOSERDIALOGBOX.H
C:\JUCE\MODULES\JUCE_GUI_BASICS\FILEBROWSER\JUCE_FILELISTCOMPONENT.H
C:\JUCE\MODULES\JUCE_GUI_BASICS\FILEBROWSER\JUCE_FILENAMECOMPONENT.H
C:\JUCE\MODULES\JUCE_GUI_BASICS\FILEBROWSER\JUCE_FILEPREVIEWCOMPONENT.H
C:\JUCE\MODULES\JUCE_GUI_BASICS\FILEBROWSER\JUCE_FILESEARCHPATHLISTCOMPONENT.H
C:\JUCE\MODULES\JUCE_GUI_BASICS\FILEBROWSER\JUCE_FILETREECOMPONENT.H
C:\JUCE\MODULES\JUCE_GUI_BASICS\FILEBROWSER\JUCE_IMAGEPREVIEWCOMPONENT.H
C:\JUCE\MODULES\JUCE_GUI_BASICS\FILEBROWSER\JUCE_CONTENTSHARER.H
C:\JUCE\MODULES\JUCE_GUI_BASICS\PROPERTIES\JUCE_PROPERTYCOMPONENT.H
C:\JUCE\MODULES\JUCE_GUI_BASICS\PROPERTIES\JUCE_BOOLEANPROPERTYCOMPONENT.H
C:\JUCE\MODULES\JUCE_GUI_BASICS\PROPERTIES\JUCE_BUTTONPROPERTYCOMPONENT.H
C:\JUCE\MODULES\JUCE_GUI_BASICS\PROPERTIES\JUCE_CHOICEPROPERTYCOMPONENT.H
C:\JUCE\MODULES\JUCE_GUI_BASICS\PROPERTIES\JUCE_PROPERTYPANEL.H
C:\JUCE\MODULES\JUCE_GUI_BASICS\PROPERTIES\JUCE_SLIDERPROPERTYCOMPONENT.H
C:\JUCE\MODULES\JUCE_GUI_BASICS\PROPERTIES\JUCE_TEXTPROPERTYCOMPONENT.H
C:\JUCE\MODULES\JUCE_GUI_BASICS\PROPERTIES\JUCE_MULTICHOICEPROPERTYCOMPONENT.H
C:\JUCE\MODULES\JUCE_GUI_BASICS\APPLICATION\JUCE_APPLICATION.H
C:\JUCE\MODULES\JUCE_GUI_BASICS\MISC\JUCE_BUBBLECOMPONENT.H
C:\JUCE\MODULES\JUCE_GUI_BASICS\LOOKANDFEEL\JUCE_LOOKANDFEEL.H
C:\JUCE\MODULES\JUCE_GUI_BASICS\LOOKANDFEEL\JUCE_LOOKANDFEEL_V2.H
C:\JUCE\MODULES\JUCE_GUI_BASICS\LOOKANDFEEL\JUCE_LOOKANDFEEL_V1.H
C:\JUCE\MODULES\JUCE_GUI_BASICS\LOOKANDFEEL\JUCE_LOOKANDFEEL_V3.H
C:\JUCE\MODULES\JUCE_GUI_BASICS\LOOKANDFEEL\JUCE_LOOKANDFEEL_V4.H
C:\JUCE\MODULES\JUCE_GUI_BASICS\MOUSE\JUCE_LASSOCOMPONENT.H
C:\JUCE\MODULES\JUCE_GUI_BASICS\LAYOUT\JUCE_FLEXITEM.H
C:\JUCE\MODULES\JUCE_GUI_BASICS\LAYOUT\JUCE_FLEXBOX.H
C:\JUCE\MODULES\JUCE_GUI_BASICS\LAYOUT\JUCE_GRIDITEM.H
C:\JUCE\MODULES\JUCE_GUI_BASICS\LAYOUT\JUCE_GRID.H
C:\JUCE\MODULES\JUCE_AUDIO_BASICS\JUCE_AUDIO_BASICS.H
C:\JUCE\MODULES\JUCE_AUDIO_BASICS\BUFFERS\JUCE_AUDIODATACONVERTERS.H
C:\JUCE\MODULES\JUCE_AUDIO_BASICS\BUFFERS\JUCE_FLOATVECTOROPERATIONS.H
C:\JUCE\MODULES\JUCE_AUDIO_BASICS\BUFFERS\JUCE_AUDIOSAMPLEBUFFER.H
C:\JUCE\MODULES\JUCE_AUDIO_BASICS\BUFFERS\JUCE_AUDIOCHANNELSET.H
C:\JUCE\MODULES\JUCE_AUDIO_BASICS\BUFFERS\JUCE_AUDIOPROCESSLOADMEASURER.H
C:\JUCE\MODULES\JUCE_AUDIO_BASICS\UTILITIES\JUCE_DECIBELS.H
C:\JUCE\MODULES\JUCE_AUDIO_BASICS\UTILITIES\JUCE_IIRFILTER.H
C:\JUCE\MODULES\JUCE_AUDIO_BASICS\UTILITIES\JUCE_LAGRANGEINTERPOLATOR.H
C:\JUCE\MODULES\JUCE_AUDIO_BASICS\UTILITIES\JUCE_CATMULLROMINTERPOLATOR.H
C:\JUCE\MODULES\JUCE_AUDIO_BASICS\UTILITIES\JUCE_SMOOTHEDVALUE.H
C:\JUCE\MODULES\JUCE_AUDIO_BASICS\UTILITIES\JUCE_REVERB.H
C:\JUCE\MODULES\JUCE_AUDIO_BASICS\UTILITIES\JUCE_ADSR.H
C:\JUCE\MODULES\JUCE_AUDIO_BASICS\MIDI\JUCE_MIDIMESSAGE.H
C:\JUCE\MODULES\JUCE_AUDIO_BASICS\MIDI\JUCE_MIDIBUFFER.H
C:\JUCE\MODULES\JUCE_AUDIO_BASICS\MIDI\JUCE_MIDIMESSAGESEQUENCE.H
C:\JUCE\MODULES\JUCE_AUDIO_BASICS\MIDI\JUCE_MIDIFILE.H
C:\JUCE\MODULES\JUCE_AUDIO_BASICS\MIDI\JUCE_MIDIKEYBOARDSTATE.H
C:\JUCE\MODULES\JUCE_AUDIO_BASICS\MIDI\JUCE_MIDIRPN.H
C:\JUCE\MODULES\JUCE_AUDIO_BASICS\MPE\JUCE_MPEVALUE.H
C:\JUCE\MODULES\JUCE_AUDIO_BASICS\MPE\JUCE_MPENOTE.H
C:\JUCE\MODULES\JUCE_AUDIO_BASICS\MPE\JUCE_MPEZONELAYOUT.H
C:\JUCE\MODULES\JUCE_AUDIO_BASICS\MPE\JUCE_MPEINSTRUMENT.H
C:\JUCE\MODULES\JUCE_AUDIO_BASICS\MPE\JUCE_MPEMESSAGES.H
C:\JUCE\MODULES\JUCE_AUDIO_BASICS\MPE\JUCE_MPESYNTHESISERBASE.H
C:\JUCE\MODULES\JUCE_AUDIO_BASICS\MPE\JUCE_MPESYNTHESISERVOICE.H
C:\JUCE\MODULES\JUCE_AUDIO_BASICS\MPE\JUCE_MPESYNTHESISER.H
C:\JUCE\MODULES\JUCE_AUDIO_BASICS\MPE\JUCE_MPEUTILS.H
C:\JUCE\MODULES\JUCE_AUDIO_BASICS\SOURCES\JUCE_AUDIOSOURCE.H
C:\JUCE\MODULES\JUCE_AUDIO_BASICS\SOURCES\JUCE_POSITIONABLEAUDIOSOURCE.H
C:\JUCE\MODULES\JUCE_AUDIO_BASICS\SOURCES\JUCE_BUFFERINGAUDIOSOURCE.H
C:\JUCE\MODULES\JUCE_AUDIO_BASICS\SOURCES\JUCE_CHANNELREMAPPINGAUDIOSOURCE.H
C:\JUCE\MODULES\JUCE_AUDIO_BASICS\SOURCES\JUCE_IIRFILTERAUDIOSOURCE.H
C:\JUCE\MODULES\JUCE_AUDIO_BASICS\SOURCES\JUCE_MEMORYAUDIOSOURCE.H
C:\JUCE\MODULES\JUCE_AUDIO_BASICS\SOURCES\JUCE_MIXERAUDIOSOURCE.H
C:\JUCE\MODULES\JUCE_AUDIO_BASICS\SOURCES\JUCE_RESAMPLINGAUDIOSOURCE.H
C:\JUCE\MODULES\JUCE_AUDIO_BASICS\SOURCES\JUCE_REVERBAUDIOSOURCE.H
C:\JUCE\MODULES\JUCE_AUDIO_BASICS\SOURCES\JUCE_TONEGENERATORAUDIOSOURCE.H
C:\JUCE\MODULES\JUCE_AUDIO_BASICS\SYNTHESISERS\JUCE_SYNTHESISER.H
C:\JUCE\MODULES\JUCE_AUDIO_BASICS\AUDIO_PLAY_HEAD\JUCE_AUDIOPLAYHEAD.H
C:\JUCE\MODULES\JUCE_AUDIO_PROCESSORS\JUCE_AUDIO_PROCESSORS.H
C:\JUCE\MODULES\JUCE_AUDIO_PROCESSORS\PROCESSORS\JUCE_AUDIOPROCESSOREDITOR.H
C:\JUCE\MODULES\JUCE_AUDIO_PROCESSORS\PROCESSORS\JUCE_AUDIOPROCESSORLISTENER.H
C:\JUCE\MODULES\JUCE_AUDIO_PROCESSORS\PROCESSORS\JUCE_AUDIOPROCESSORPARAMETER.H
C:\JUCE\MODULES\JUCE_AUDIO_PROCESSORS\PROCESSORS\JUCE_AUDIOPROCESSORPARAMETERGROUP.H
C:\JUCE\MODULES\JUCE_AUDIO_PROCESSORS\PROCESSORS\JUCE_AUDIOPROCESSOR.H
C:\JUCE\MODULES\JUCE_AUDIO_PROCESSORS\PROCESSORS\JUCE_PLUGINDESCRIPTION.H
C:\JUCE\MODULES\JUCE_AUDIO_PROCESSORS\PROCESSORS\JUCE_AUDIOPLUGININSTANCE.H
C:\JUCE\MODULES\JUCE_AUDIO_PROCESSORS\PROCESSORS\JUCE_AUDIOPROCESSORGRAPH.H
C:\JUCE\MODULES\JUCE_AUDIO_PROCESSORS\PROCESSORS\JUCE_GENERICAUDIOPROCESSOREDITOR.H
C:\JUCE\MODULES\JUCE_AUDIO_PROCESSORS\FORMAT\JUCE_AUDIOPLUGINFORMAT.H
C:\JUCE\MODULES\JUCE_AUDIO_PROCESSORS\FORMAT\JUCE_AUDIOPLUGINFORMATMANAGER.H
C:\JUCE\MODULES\JUCE_AUDIO_PROCESSORS\SCANNING\JUCE_KNOWNPLUGINLIST.H
C:\JUCE\MODULES\JUCE_AUDIO_PROCESSORS\FORMAT_TYPES\JUCE_AUDIOUNITPLUGINFORMAT.H
C:\JUCE\MODULES\JUCE_AUDIO_PROCESSORS\FORMAT_TYPES\JUCE_LADSPAPLUGINFORMAT.H
C:\JUCE\MODULES\JUCE_AUDIO_PROCESSORS\FORMAT_TYPES\JUCE_VSTMIDIEVENTLIST.H
C:\JUCE\MODULES\JUCE_AUDIO_PROCESSORS\FORMAT_TYPES\JUCE_VSTPLUGINFORMAT.H
C:\JUCE\MODULES\JUCE_AUDIO_PROCESSORS\FORMAT_TYPES\JUCE_VST3PLUGINFORMAT.H
C:\JUCE\MODULES\JUCE_AUDIO_PROCESSORS\SCANNING\JUCE_PLUGINDIRECTORYSCANNER.H
C:\JUCE\MODULES\JUCE_AUDIO_PROCESSORS\SCANNING\JUCE_PLUGINLISTCOMPONENT.H
C:\JUCE\MODULES\JUCE_AUDIO_PROCESSORS\UTILITIES\JUCE_AUDIOPROCESSORPARAMETERWITHID.H
C:\JUCE\MODULES\JUCE_AUDIO_PROCESSORS\UTILITIES\JUCE_RANGEDAUDIOPARAMETER.H
C:\JUCE\MODULES\JUCE_AUDIO_PROCESSORS\UTILITIES\JUCE_AUDIOPARAMETERFLOAT.H
C:\JUCE\MODULES\JUCE_AUDIO_PROCESSORS\UTILITIES\JUCE_AUDIOPARAMETERINT.H
C:\JUCE\MODULES\JUCE_AUDIO_PROCESSORS\UTILITIES\JUCE_AUDIOPARAMETERBOOL.H
C:\JUCE\MODULES\JUCE_AUDIO_PROCESSORS\UTILITIES\JUCE_AUDIOPARAMETERCHOICE.H
C:\JUCE\MODULES\JUCE_AUDIO_PROCESSORS\UTILITIES\JUCE_AUDIOPROCESSORVALUETREESTATE.H
C:\JUCE\MODULES\JUCE_AUDIO_PLUGIN_CLIENT\UTILITY\JUCE_PLUGINHOSTTYPE.H
C:\JUCE\MODULES\JUCE_AUDIO_PLUGIN_CLIENT\VST\JUCE_VSTCALLBACKHANDLER.H
C:\JUCE\MODULES\JUCE_AUDIO_PLUGIN_CLIENT\UTILITY\JUCE_FAKEMOUSEMOVEGENERATOR.H
C:\JUCE\MODULES\JUCE_AUDIO_PLUGIN_CLIENT\UTILITY\JUCE_WINDOWSHOOKS.H
C:\JUCE\MODULES\JUCE_AUDIO_DEVICES\JUCE_AUDIO_DEVICES.H
C:\JUCE\MODULES\JUCE_AUDIO_DEVICES\MIDI_IO\JUCE_MIDIDEVICES.H
C:\JUCE\MODULES\JUCE_AUDIO_DEVICES\MIDI_IO\JUCE_MIDIMESSAGECOLLECTOR.H
C:\JUCE\MODULES\JUCE_AUDIO_DEVICES\AUDIO_IO\JUCE_AUDIOIODEVICE.H
C:\JUCE\MODULES\JUCE_AUDIO_DEVICES\AUDIO_IO\JUCE_AUDIOIODEVICETYPE.H
C:\JUCE\MODULES\JUCE_AUDIO_DEVICES\AUDIO_IO\JUCE_SYSTEMAUDIOVOLUME.H
C:\JUCE\MODULES\JUCE_AUDIO_DEVICES\SOURCES\JUCE_AUDIOSOURCEPLAYER.H
C:\JUCE\MODULES\JUCE_AUDIO_DEVICES\SOURCES\JUCE_AUDIOTRANSPORTSOURCE.H
C:\JUCE\MODULES\JUCE_AUDIO_DEVICES\AUDIO_IO\JUCE_AUDIODEVICEMANAGER.H
C:\JUCE\MODULES\JUCE_GUI_EXTRA\JUCE_GUI_EXTRA.H
C:\JUCE\MODULES\JUCE_GUI_EXTRA\DOCUMENTS\JUCE_FILEBASEDDOCUMENT.H
C:\JUCE\MODULES\JUCE_GUI_EXTRA\CODE_EDITOR\JUCE_CODEDOCUMENT.H
C:\JUCE\MODULES\JUCE_GUI_EXTRA\CODE_EDITOR\JUCE_CODEEDITORCOMPONENT.H
C:\JUCE\MODULES\JUCE_GUI_EXTRA\CODE_EDITOR\JUCE_CODETOKENISER.H
C:\JUCE\MODULES\JUCE_GUI_EXTRA\CODE_EDITOR\JUCE_CPLUSPLUSCODETOKENISER.H
C:\JUCE\MODULES\JUCE_GUI_EXTRA\CODE_EDITOR\JUCE_CPLUSPLUSCODETOKENISERFUNCTIONS.H
C:\JUCE\MODULES\JUCE_GUI_EXTRA\CODE_EDITOR\JUCE_XMLCODETOKENISER.H
C:\JUCE\MODULES\JUCE_GUI_EXTRA\CODE_EDITOR\JUCE_LUACODETOKENISER.H
C:\JUCE\MODULES\JUCE_GUI_EXTRA\EMBEDDING\JUCE_ACTIVEXCONTROLCOMPONENT.H
C:\JUCE\MODULES\JUCE_GUI_EXTRA\EMBEDDING\JUCE_ANDROIDVIEWCOMPONENT.H
C:\JUCE\MODULES\JUCE_GUI_EXTRA\EMBEDDING\JUCE_NSVIEWCOMPONENT.H
C:\JUCE\MODULES\JUCE_GUI_EXTRA\EMBEDDING\JUCE_UIVIEWCOMPONENT.H
C:\JUCE\MODULES\JUCE_GUI_EXTRA\EMBEDDING\JUCE_XEMBEDCOMPONENT.H
C:\JUCE\MODULES\JUCE_GUI_EXTRA\EMBEDDING\JUCE_SCOPEDDPIAWARENESSDISABLER.H
C:\JUCE\MODULES\JUCE_GUI_EXTRA\MISC\JUCE_APPLEREMOTE.H
C:\JUCE\MODULES\JUCE_GUI_EXTRA\MISC\JUCE_BUBBLEMESSAGECOMPONENT.H
C:\JUCE\MODULES\JUCE_GUI_EXTRA\MISC\JUCE_COLOURSELECTOR.H
C:\JUCE\MODULES\JUCE_GUI_EXTRA\MISC\JUCE_KEYMAPPINGEDITORCOMPONENT.H
C:\JUCE\MODULES\JUCE_GUI_EXTRA\MISC\JUCE_PREFERENCESPANEL.H
C:\JUCE\MODULES\JUCE_GUI_EXTRA\MISC\JUCE_PUSHNOTIFICATIONS.H
C:\JUCE\MODULES\JUCE_GUI_EXTRA\MISC\JUCE_RECENTLYOPENEDFILESLIST.H
C:\JUCE\MODULES\JUCE_GUI_EXTRA\MISC\JUCE_SPLASHSCREEN.H
C:\JUCE\MODULES\JUCE_GUI_EXTRA\MISC\JUCE_SYSTEMTRAYICONCOMPONENT.H
C:\JUCE\MODULES\JUCE_GUI_EXTRA\MISC\JUCE_WEBBROWSERCOMPONENT.H
C:\JUCE\MODULES\JUCE_GUI_EXTRA\MISC\JUCE_LIVECONSTANTEDITOR.H
C:\JUCE\MODULES\JUCE_GUI_EXTRA\MISC\JUCE_ANIMATEDAPPCOMPONENT.H
C:\JUCE\MODULES\JUCE_AUDIO_UTILS\JUCE_AUDIO_UTILS.H
C:\JUCE\MODULES\JUCE_AUDIO_FORMATS\JUCE_AUDIO_FORMATS.H
C:\JUCE\MODULES\JUCE_AUDIO_FORMATS\FORMAT\JUCE_AUDIOFORMATREADER.H
C:\JUCE\MODULES\JUCE_AUDIO_FORMATS\FORMAT\JUCE_AUDIOFORMATWRITER.H
C:\JUCE\MODULES\JUCE_AUDIO_FORMATS\FORMAT\JUCE_MEMORYMAPPEDAUDIOFORMATREADER.H
C:\JUCE\MODULES\JUCE_AUDIO_FORMATS\FORMAT\JUCE_AUDIOFORMAT.H
C:\JUCE\MODULES\JUCE_AUDIO_FORMATS\FORMAT\JUCE_AUDIOFORMATMANAGER.H
C:\JUCE\MODULES\JUCE_AUDIO_FORMATS\FORMAT\JUCE_AUDIOFORMATREADERSOURCE.H
C:\JUCE\MODULES\JUCE_AUDIO_FORMATS\FORMAT\JUCE_AUDIOSUBSECTIONREADER.H
C:\JUCE\MODULES\JUCE_AUDIO_FORMATS\FORMAT\JUCE_BUFFERINGAUDIOFORMATREADER.H
C:\JUCE\MODULES\JUCE_AUDIO_FORMATS\CODECS\JUCE_AIFFAUDIOFORMAT.H
C:\JUCE\MODULES\JUCE_AUDIO_FORMATS\CODECS\JUCE_COREAUDIOFORMAT.H
C:\JUCE\MODULES\JUCE_AUDIO_FORMATS\CODECS\JUCE_FLACAUDIOFORMAT.H
C:\JUCE\MODULES\JUCE_AUDIO_FORMATS\CODECS\JUCE_LAMEENCODERAUDIOFORMAT.H
C:\JUCE\MODULES\JUCE_AUDIO_FORMATS\CODECS\JUCE_MP3AUDIOFORMAT.H
C:\JUCE\MODULES\JUCE_AUDIO_FORMATS\CODECS\JUCE_OGGVORBISAUDIOFORMAT.H
C:\JUCE\MODULES\JUCE_AUDIO_FORMATS\CODECS\JUCE_WAVAUDIOFORMAT.H
C:\JUCE\MODULES\JUCE_AUDIO_FORMATS\CODECS\JUCE_WINDOWSMEDIAAUDIOFORMAT.H
C:\JUCE\MODULES\JUCE_AUDIO_FORMATS\SAMPLER\JUCE_SAMPLER.H
C:\JUCE\MODULES\JUCE_AUDIO_UTILS\GUI\JUCE_AUDIODEVICESELECTORCOMPONENT.H
C:\JUCE\MODULES\JUCE_AUDIO_UTILS\GUI\JUCE_AUDIOTHUMBNAILBASE.H
C:\JUCE\MODULES\JUCE_AUDIO_UTILS\GUI\JUCE_AUDIOTHUMBNAIL.H
C:\JUCE\MODULES\JUCE_AUDIO_UTILS\GUI\JUCE_AUDIOTHUMBNAILCACHE.H
C:\JUCE\MODULES\JUCE_AUDIO_UTILS\GUI\JUCE_AUDIOVISUALISERCOMPONENT.H
C:\JUCE\MODULES\JUCE_AUDIO_UTILS\GUI\JUCE_MIDIKEYBOARDCOMPONENT.H
C:\JUCE\MODULES\JUCE_AUDIO_UTILS\GUI\JUCE_AUDIOAPPCOMPONENT.H
C:\JUCE\MODULES\JUCE_AUDIO_UTILS\GUI\JUCE_BLUETOOTHMIDIDEVICEPAIRINGDIALOGUE.H
C:\JUCE\MODULES\JUCE_AUDIO_UTILS\PLAYERS\JUCE_SOUNDPLAYER.H
C:\JUCE\MODULES\JUCE_AUDIO_UTILS\PLAYERS\JUCE_AUDIOPROCESSORPLAYER.H
C:\JUCE\MODULES\JUCE_AUDIO_UTILS\AUDIO_CD\JUCE_AUDIOCDBURNER.H
C:\JUCE\MODULES\JUCE_AUDIO_UTILS\AUDIO_CD\JUCE_AUDIOCDREADER.H
C:\JUCE\MODULES\JUCE_AUDIO_PLUGIN_CLIENT\STANDALONE\JUCE_STANDALONEFILTERWINDOW.H
