^C:\VST-SYNTHESIZER\ELIXER\BUILDS\VISUALSTUDIO2019\X64\RELEASE\SHARED CODE\INCLUDE_JUCE_AUDIO_BASICS.OBJ|C:\VST-SYNTHESIZER\ELIXER\BUILDS\VISUALSTUDIO2019\X64\RELEASE\SHARED CODE\INCLUDE_JUCE_AUDIO_DEVICES.OBJ|C:\VST-SYNTHESIZER\ELIXER\BUILDS\VISUALSTUDIO2019\X64\RELEASE\SHARED CODE\INCLUDE_JUCE_AUDIO_FORMATS.OBJ|C:\VST-SYNTHESIZER\ELIXER\BUILDS\VISUALSTUDIO2019\X64\RELEASE\SHARED CODE\INCLUDE_JUCE_AUDIO_PLUGIN_CLIENT_UTILS.OBJ|C:\VST-SYNTHESIZER\ELIXER\BUILDS\VISUALSTUDIO2019\X64\RELEASE\SHARED CODE\INCLUDE_JUCE_AUDIO_PROCESSORS.OBJ|C:\VST-SYNTHESIZER\ELIXER\BUILDS\VISUALSTUDIO2019\X64\RELEASE\SHARED CODE\INCLUDE_JUCE_AUDIO_UTILS.OBJ|C:\VST-SYNTHESIZER\ELIXER\BUILDS\VISUALSTUDIO2019\X64\RELEASE\SHARED CODE\INCLUDE_JUCE_CORE.OBJ|C:\VST-SYNTHESIZER\ELIXER\BUILDS\VISUALSTUDIO2019\X64\RELEASE\SHARED CODE\INCLUDE_JUCE_CRYPTOGRAPHY.OBJ|C:\VST-SYNTHESIZER\ELIXER\BUILDS\VISUALSTUDIO2019\X64\RELEASE\SHARED CODE\INCLUDE_JUCE_DATA_STRUCTURES.OBJ|C:\VST-SYNTHESIZER\ELIXER\BUILDS\VISUALSTUDIO2019\X64\RELEASE\SHARED CODE\INCLUDE_JUCE_EVENTS.OBJ|C:\VST-SYNTHESIZER\ELIXER\BUILDS\VISUALSTUDIO2019\X64\RELEASE\SHARED CODE\INCLUDE_JUCE_GRAPHICS.OBJ|C:\VST-SYNTHESIZER\ELIXER\BUILDS\VISUALSTUDIO2019\X64\RELEASE\SHARED CODE\INCLUDE_JUCE_GUI_BASICS.OBJ|C:\VST-SYNTHESIZER\ELIXER\BUILDS\VISUALSTUDIO2019\X64\RELEASE\SHARED CODE\INCLUDE_JUCE_GUI_EXTRA.OBJ|C:\VST-SYNTHESIZER\ELIXER\BUILDS\VISUALSTUDIO2019\X64\RELEASE\SHARED CODE\INCLUDE_JUCE_OPENGL.OBJ|C:\VST-SYNTHESIZER\ELIXER\BUILDS\VISUALSTUDIO2019\X64\RELEASE\SHARED CODE\PLUGINEDITOR.OBJ|C:\VST-SYNTHESIZER\ELIXER\BUILDS\VISUALSTUDIO2019\X64\RELEASE\SHARED CODE\PLUGINPROCESSOR.OBJ
/OUT:"C:\VST-SYNTHESIZER\ELIXER\BUILDS\VISUALSTUDIO2019\X64\RELEASE\SHARED CODE\ELIXER.LIB" /NOLOGO /MACHINE:X64 /LTCG "X64\RELEASE\SHARED CODE\\PLUGINPROCESSOR.OBJ"
"X64\RELEASE\SHARED CODE\\PLUGINEDITOR.OBJ"
"X64\RELEASE\SHARED CODE\\INCLUDE_JUCE_AUDIO_BASICS.OBJ"
"X64\RELEASE\SHARED CODE\\INCLUDE_JUCE_AUDIO_DEVICES.OBJ"
"X64\RELEASE\SHARED CODE\\INCLUDE_JUCE_AUDIO_FORMATS.OBJ"
"X64\RELEASE\SHARED CODE\\INCLUDE_JUCE_AUDIO_PLUGIN_CLIENT_UTILS.OBJ"
"X64\RELEASE\SHARED CODE\\INCLUDE_JUCE_AUDIO_PROCESSORS.OBJ"
"X64\RELEASE\SHARED CODE\\INCLUDE_JUCE_AUDIO_UTILS.OBJ"
"X64\RELEASE\SHARED CODE\\INCLUDE_JUCE_CORE.OBJ"
"X64\RELEASE\SHARED CODE\\INCLUDE_JUCE_CRYPTOGRAPHY.OBJ"
"X64\RELEASE\SHARED CODE\\INCLUDE_JUCE_DATA_STRUCTURES.OBJ"
"X64\RELEASE\SHARED CODE\\INCLUDE_JUCE_EVENTS.OBJ"
"X64\RELEASE\SHARED CODE\\INCLUDE_JUCE_GRAPHICS.OBJ"
"X64\RELEASE\SHARED CODE\\INCLUDE_JUCE_GUI_BASICS.OBJ"
"X64\RELEASE\SHARED CODE\\INCLUDE_JUCE_GUI_EXTRA.OBJ"
"X64\RELEASE\SHARED CODE\\INCLUDE_JUCE_OPENGL.OBJ"
